EXT_JOB_ID|PART_ID|DESCRIPTION|QTY|AUTH_INCENTIVE_AMT|TOTAL_INSTALLED_PRICE|EXIST_MEA_ID|EXIST_EQUIPMENT_MANUF|EXIST_EQUIPMENT_MODEL|EXIST_EQUIPMENT_SIZE|EXIST_EQUIPMENT_STYLE|EXIST_EQUIPMENT_KWH|EXIST_EQUIPMENT_DOOR_ICE|NEW_EQUIPMENT_MANUF|NEW_EQUPMENT_MODEL|NEW_EQUIPMENT_SIZE|SIZE_TYPE|NEW_EQUIPMENT_STYLE|NEW_EQUIPMENT_KWH|THROUGH_DOOR_ICE|INSTALLED_DATE|AFUE_RATING|NFRC_U_FACTOR|EXIST_YEAR|SAVINGS|EXIST_LOCATION|EXIST_KWH_SOURCE|EXIST_OP_HOURS|INSTALL_LOCATION|ANNUAL_OP_HRS|CUSTOMER_PRICE
S00002309189|LED0172|10w TCP A19 LED|2|15.30|15.30|LED0172|||0.00||0.00||||0.00|||0.00||01/23/2017|0.00|0.00||0.00|||0.00|Living Space|0.00|15.30
S00002309189|LED3101|5W TCP Candle Base LED|6|25.50|25.50|LED3101|||0.00||0.00||||0.00|||0.00||01/23/2017|0.00|0.00||0.00|||0.00|Living Space|0.00|25.50
S00002309189|LED4102|8w TCP LED Dimmable R20 Flood|2|8.50|8.50|LED4102|||0.00||0.00||||0.00|||0.00||01/23/2017|0.00|0.00||0.00|||0.00|Living Space|0.00|8.50
S00002309189|LED8283|5W Philips LED 3-Way|2|34.50|34.50|LED8283|||0.00||0.00||||0.00|||0.00||01/23/2017|0.00|0.00||0.00|||0.00|Living Space|0.00|34.50
S00050264967|LED0172|10w TCP A19 LED|4|30.60|30.60|LED0172|||0.00||0.00||||0.00|||0.00||01/18/2017|0.00|0.00||0.00|||0.00|Living Space|0.00|30.60
S00050264967|LED8283|5W Philips LED 3-Way|2|34.50|34.50|LED8283|||0.00||0.00||||0.00|||0.00||01/18/2017|0.00|0.00||0.00|||0.00|Living Space|0.00|34.50
S00050264967|TrickleStarPowerStrip|Advanced 6-outlet Smart Power Strip|1|20.84|20.84|TrickleStarPowerStrip|||0.00||0.00||||0.00|||0.00||01/18/2017|0.00|0.00||0.00|||0.00|Family Room|0.00|20.84
S00050270740|LED0172|10w TCP A19 LED|8|61.20|61.20|LED0172|||0.00||0.00||||0.00|||0.00||01/18/2017|0.00|0.00||0.00|||0.00|Living Space|0.00|61.20
S00050270740|LED8283|5W Philips LED 3-Way|2|34.50|34.50|LED8283|||0.00||0.00||||0.00|||0.00||01/18/2017|0.00|0.00||0.00|||0.00|Living Space|0.00|34.50
S00050270740|TrickleStarPowerStrip|Advanced 6-outlet Smart Power Strip|1|20.84|20.84|TrickleStarPowerStrip|||0.00||0.00||||0.00|||0.00||01/18/2017|0.00|0.00||0.00|||0.00|Family Room|0.00|20.84
S00050271020|LED0172|10w TCP A19 LED|13|99.45|99.45|LED0172|||0.00||0.00||||0.00|||0.00||01/19/2017|0.00|0.00||0.00|||0.00|Living Space|0.00|99.45
S00050271020|LED534|8w TCP LED Dimmable R20 Flood|5|54.50|54.50|LED534|||0.00||0.00||||0.00|||0.00||01/19/2017|0.00|0.00||0.00|||0.00|Living Space|0.00|54.50
S00050271020|LED538|10w TCP LED Dimmable Flood BR-30|24|231.60|231.60|LED538|||0.00||0.00||||0.00|||0.00||01/19/2017|0.00|0.00||0.00|||0.00|Living Space|0.00|231.60
S00050271020|TrickleStarPowerStrip|Advanced 6-outlet Smart Power Strip|1|20.84|20.84|TrickleStarPowerStrip|||0.00||0.00||||0.00|||0.00||01/19/2017|0.00|0.00||0.00|||0.00|Family Room|0.00|20.84
S00050279219|CFL128|13W TCP Eco$ave SpringLight|3|16.05|16.05|CFL128|||0.00||0.00||||0.00|||0.00||01/27/2017|0.00|0.00||0.00|||0.00|Living Space|0.00|16.05
S00050279219|CFL139|23W TCP Eco$ave Springlight|7|40.95|40.95|CFL139|||0.00||0.00||||0.00|||0.00||01/27/2017|0.00|0.00||0.00|||0.00|Living Space|0.00|40.95
S00050279219|CFL794|TCP 14w A Lamp|1|6.90|6.90|CFL794|||0.00||0.00||||0.00|||0.00||01/27/2017|0.00|0.00||0.00|||0.00|Living Space|0.00|6.90
S00050279219|LED0172|10w TCP A19 LED|10|76.50|76.50|LED0172|||0.00||0.00||||0.00|||0.00||01/27/2017|0.00|0.00||0.00|||0.00|Living Space|0.00|76.50
S00050279219|TrickleStarPowerStrip|Advanced 6-outlet Smart Power Strip|1|20.84|20.84|TrickleStarPowerStrip|||0.00||0.00||||0.00|||0.00||01/27/2017|0.00|0.00||0.00|||0.00|Family Room|0.00|20.84
S00050282274|LED0172|10w TCP A19 LED|10|76.50|76.50|LED0172|||0.00||0.00||||0.00|||0.00||01/23/2017|0.00|0.00||0.00|||0.00|Living Space|0.00|76.50
S00050282274|LED8283|5W Philips LED 3-Way|1|17.25|17.25|LED8283|||0.00||0.00||||0.00|||0.00||01/23/2017|0.00|0.00||0.00|||0.00|Living Space|0.00|17.25
S00050282274|TrickleStarPowerStrip|Advanced 6-outlet Smart Power Strip|1|20.84|20.84|TrickleStarPowerStrip|||0.00||0.00||||0.00|||0.00||01/23/2017|0.00|0.00||0.00|||0.00|Family Room|0.00|20.84
S00002156442|LED0181|5W TCP LED Candle Base Dimmable|12|110.40|110.40|LED0181|||0.00||0.00||||0.00|||0.00||01/06/2017|0.00|0.00||0.00|||0.00|Living Space|0.00|110.40
S00002156442|LED534|8w TCP LED Dimmable R20 Flood|4|43.60|43.60|LED534|||0.00||0.00||||0.00|||0.00||01/06/2017|0.00|0.00||0.00|||0.00|Living Space|0.00|43.60
S00002156442|LED538|10w TCP LED Dimmable Flood BR-30|2|19.30|19.30|LED538|||0.00||0.00||||0.00|||0.00||01/06/2017|0.00|0.00||0.00|||0.00|Living Space|0.00|19.30
S00002156442|LED539|5w TCP LED Dimmable Globe|4|45.20|45.20|LED539|||0.00||0.00||||0.00|||0.00||01/06/2017|0.00|0.00||0.00|||0.00|Living Space|0.00|45.20
S00002156442|TrickleStarPowerStrip|Advanced 6-outlet Smart Power Strip|1|20.84|20.84|TrickleStarPowerStrip|||0.00||0.00||||0.00|||0.00||01/06/2017|0.00|0.00||0.00|||0.00|Family Room|0.00|20.84
S00050247570|LED0172|10w TCP A19 LED|10|76.50|76.50|LED0172|||0.00||0.00||||0.00|||0.00||12/22/2016|0.00|0.00||0.00|||0.00|Living Space|0.00|76.50
S00050247570|LED534|8w TCP LED Dimmable R20 Flood|1|10.90|10.90|LED534|||0.00||0.00||||0.00|||0.00||12/22/2016|0.00|0.00||0.00|||0.00|Living Space|0.00|10.90
S00050247570|LED8283|5W Philips LED 3-Way|2|34.50|34.50|LED8283|||0.00||0.00||||0.00|||0.00||12/22/2016|0.00|0.00||0.00|||0.00|Living Space|0.00|34.50
S00050247570|TrickleStarPowerStrip|Advanced 6-outlet Smart Power Strip|1|20.84|20.84|TrickleStarPowerStrip|||0.00||0.00||||0.00|||0.00||12/22/2016|0.00|0.00||0.00|||0.00|Family Room|0.00|20.84
S00050254907|TrickleStarPowerStrip|Advanced 6-outlet Smart Power Strip|1|20.84|20.84|TrickleStarPowerStrip|||0.00||0.00||||0.00|||0.00||12/17/2016|0.00|0.00||0.00|||0.00|Family Room|0.00|20.84
S00050258613|CFL828|30W Maxlite 3-Way|1|8.30|8.30|CFL828|||0.00||0.00||||0.00|||0.00||12/18/2016|0.00|0.00||0.00|||0.00|Living Space|0.00|8.30
S00050258613|LED0172|10w TCP A19 LED|8|61.20|61.20|LED0172|||0.00||0.00||||0.00|||0.00||12/18/2016|0.00|0.00||0.00|||0.00|Living Space|0.00|61.20
S00050258613|LED0181|5W TCP LED Candle Base Dimmable|4|36.80|36.80|LED0181|||0.00||0.00||||0.00|||0.00||12/18/2016|0.00|0.00||0.00|||0.00|Living Space|0.00|36.80
S00050258613|LED534|8w TCP LED Dimmable R20 Flood|8|87.20|87.20|LED534|||0.00||0.00||||0.00|||0.00||12/18/2016|0.00|0.00||0.00|||0.00|Living Space|0.00|87.20
S00050258613|LED8283|5W Philips LED 3-Way|2|34.50|34.50|LED8283|||0.00||0.00||||0.00|||0.00||12/18/2016|0.00|0.00||0.00|||0.00|Living Space|0.00|34.50
S00050258613|TrickleStarPowerStrip|Advanced 6-outlet Smart Power Strip|1|20.84|20.84|TrickleStarPowerStrip|||0.00||0.00||||0.00|||0.00||12/18/2016|0.00|0.00||0.00|||0.00|Family Room|0.00|20.84
S00050260882|LED0172|10w TCP A19 LED|2|15.30|15.30|LED0172|||0.00||0.00||||0.00|||0.00||12/31/2016|0.00|0.00||0.00|||0.00|Living Space|0.00|15.30
S00050260882|LED0181|5W TCP LED Candle Base Dimmable|7|64.40|64.40|LED0181|||0.00||0.00||||0.00|||0.00||12/31/2016|0.00|0.00||0.00|||0.00|Living Space|0.00|64.40
S00050261073|LED0172|10w TCP A19 LED|2|15.30|15.30|LED0172|||0.00||0.00||||0.00|||0.00||12/20/2016|0.00|0.00||0.00|||0.00|Living Space|0.00|15.30
S00050261073|LED0181|5W TCP LED Candle Base Dimmable|7|64.40|64.40|LED0181|||0.00||0.00||||0.00|||0.00||12/20/2016|0.00|0.00||0.00|||0.00|Living Space|0.00|64.40
S00050261073|LED539|5w TCP LED Dimmable Globe|2|22.60|22.60|LED539|||0.00||0.00||||0.00|||0.00||12/20/2016|0.00|0.00||0.00|||0.00|Living Space|0.00|22.60
S00050261073|TrickleStarPowerStrip|Advanced 6-outlet Smart Power Strip|1|20.84|20.84|TrickleStarPowerStrip|||0.00||0.00||||0.00|||0.00||12/20/2016|0.00|0.00||0.00|||0.00|Family Room|0.00|20.84
S00050264490|CFL128|13W TCP Eco$ave SpringLight|7|37.45|37.45|CFL128|||0.00||0.00||||0.00|||0.00||12/31/2016|0.00|0.00||0.00|||0.00|Living Space|0.00|37.45
S00050264490|LED0172|10w TCP A19 LED|10|76.50|76.50|LED0172|||0.00||0.00||||0.00|||0.00||12/31/2016|0.00|0.00||0.00|||0.00|Living Space|0.00|76.50
S00050264490|LED0181|5W TCP LED Candle Base Dimmable|8|73.60|73.60|LED0181|||0.00||0.00||||0.00|||0.00||12/31/2016|0.00|0.00||0.00|||0.00|Living Space|0.00|73.60
S00050264490|LED538|10w TCP LED Dimmable Flood BR-30|7|67.55|67.55|LED538|||0.00||0.00||||0.00|||0.00||12/31/2016|0.00|0.00||0.00|||0.00|Living Space|0.00|67.55
S00050264490|TrickleStarPowerStrip|Advanced 6-outlet Smart Power Strip|1|20.84|20.84|TrickleStarPowerStrip|||0.00||0.00||||0.00|||0.00||12/31/2016|0.00|0.00||0.00|||0.00|Family Room|0.00|20.84
S00050264503|LED0172|10w TCP A19 LED|5|38.25|38.25|LED0172|||0.00||0.00||||0.00|||0.00||12/31/2016|0.00|0.00||0.00|||0.00|Living Space|0.00|38.25
S00050264503|TrickleStarPowerStrip|Advanced 6-outlet Smart Power Strip|1|20.84|20.84|TrickleStarPowerStrip|||0.00||0.00||||0.00|||0.00||12/31/2016|0.00|0.00||0.00|||0.00|Family Room|0.00|20.84
S00050266990|LED0172|10w TCP A19 LED|5|38.25|38.25|LED0172|||0.00||0.00||||0.00|||0.00||12/27/2016|0.00|0.00||0.00|||0.00|Living Space|0.00|38.25
S00050268099|LED0172|10w TCP A19 LED|5|38.25|38.25|LED0172|||0.00||0.00||||0.00|||0.00||01/15/2017|0.00|0.00||0.00|||0.00|Living Space|0.00|38.25
S00050268099|LED539|5w TCP LED Dimmable Globe|4|45.20|45.20|LED539|||0.00||0.00||||0.00|||0.00||01/15/2017|0.00|0.00||0.00|||0.00|Living Space|0.00|45.20
S00050268099|TrickleStarPowerStrip|Advanced 6-outlet Smart Power Strip|1|20.84|20.84|TrickleStarPowerStrip|||0.00||0.00||||0.00|||0.00||01/15/2017|0.00|0.00||0.00|||0.00|Family Room|0.00|20.84
S00050268485|CFL139|23W TCP Eco$ave Springlight|6|35.10|35.10|CFL139|||0.00||0.00||||0.00|||0.00||01/06/2017|0.00|0.00||0.00|||0.00|Living Space|0.00|35.10
S00050268485|LED0172|10w TCP A19 LED|11|84.15|84.15|LED0172|||0.00||0.00||||0.00|||0.00||01/06/2017|0.00|0.00||0.00|||0.00|Living Space|0.00|84.15
S00050268485|LED539|5w TCP LED Dimmable Globe|3|33.90|33.90|LED539|||0.00||0.00||||0.00|||0.00||01/06/2017|0.00|0.00||0.00|||0.00|Living Space|0.00|33.90
S00050268485|TrickleStarPowerStrip|Advanced 6-outlet Smart Power Strip|1|20.84|20.84|TrickleStarPowerStrip|||0.00||0.00||||0.00|||0.00||01/06/2017|0.00|0.00||0.00|||0.00|Family Room|0.00|20.84
S00050271468|LED538|10w TCP LED Dimmable Flood BR-30|7|67.55|67.55|LED538|||0.00||0.00||||0.00|||0.00||01/15/2017|0.00|0.00||0.00|||0.00|Living Space|0.00|67.55
S00050271468|TrickleStarPowerStrip|Advanced 6-outlet Smart Power Strip|1|20.84|20.84|TrickleStarPowerStrip|||0.00||0.00||||0.00|||0.00||01/15/2017|0.00|0.00||0.00|||0.00|Family Room|0.00|20.84
S00050271895|LED534|8w TCP LED Dimmable R20 Flood|11|119.90|119.90|LED534|||0.00||0.00||||0.00|||0.00||12/29/2016|0.00|0.00||0.00|||0.00|Living Space|0.00|119.90
S00050271895|TrickleStarPowerStrip|Advanced 6-outlet Smart Power Strip|1|20.84|20.84|TrickleStarPowerStrip|||0.00||0.00||||0.00|||0.00||12/29/2016|0.00|0.00||0.00|||0.00|Family Room|0.00|20.84
S00050272613|TrickleStarPowerStrip|Advanced 6-outlet Smart Power Strip|1|20.84|20.84|TrickleStarPowerStrip|||0.00||0.00||||0.00|||0.00||12/22/2016|0.00|0.00||0.00|||0.00|Family Room|0.00|20.84
S00050273552|CFL128|13W TCP Eco$ave SpringLight|24|128.40|128.40|CFL128|||0.00||0.00||||0.00|||0.00||01/06/2017|0.00|0.00||0.00|||0.00|Living Space|0.00|128.40
S00050273552|LED0172|10w TCP A19 LED|10|76.50|76.50|LED0172|||0.00||0.00||||0.00|||0.00||01/06/2017|0.00|0.00||0.00|||0.00|Living Space|0.00|76.50
S00050273552|LED539|5w TCP LED Dimmable Globe|3|33.90|33.90|LED539|||0.00||0.00||||0.00|||0.00||01/06/2017|0.00|0.00||0.00|||0.00|Living Space|0.00|33.90
S00050273552|LED8283|5W Philips LED 3-Way|2|34.50|34.50|LED8283|||0.00||0.00||||0.00|||0.00||01/06/2017|0.00|0.00||0.00|||0.00|Living Space|0.00|34.50
S00050273552|TrickleStarPowerStrip|Advanced 6-outlet Smart Power Strip|1|20.84|20.84|TrickleStarPowerStrip|||0.00||0.00||||0.00|||0.00||01/06/2017|0.00|0.00||0.00|||0.00|Family Room|0.00|20.84
