EXT_JOB_ID|MEA_ID|PART_ID|DESCRIPTION|QTY|AUTH_INCENTIVE_AMT|PROCESS_ALIAS|TOTAL|INSTALL_LOCATION|ANNUAL_OP_HRS|DMD_RED_KW|ENR_SAVINGS|EXISTING_MEA_ID|EXISTING_QTY|EXISTING_KWH|EXISTING_KHW_SOURCE|EXISTING_OP_HOURS|RFG_EXIST_BRAND|RFG_EXIST_MODEL|RFG_EXIST_SIZE|EXIST_THROUGH_DOOR_ICE|EXIST_YEAR|EXIST_LOCATION|RFG_NEW_BRAND|RFG_NEW_MODEL|RFG_NEW_SIZE|THROUGH_DOOR_ICE|SAVINGS_ELE|SAVINGS_GAS|SAVINGS_OIL|SAVINGS_PROPANE|SAVINGS_OTHER|SAVINGS_UNIT|MEASURE_FUEL_TYPE|EXIST_FRIDGE_STYLE|SIZE_TYPE|NEW_FRIDGE_STYLE|NEW_KWH|INSTALLED_DATE|EXIST_EFF|INSTALL_EFF|NFRC_UFACTOR|EXIST_WATTAGE|INSTALL_WATTAGE|CUSTOMER_COST|INSTALL_GPM|INSULATION_TYPE|PRE_RVALUE|POST_RVALUE|WALL_SIDING|HOURS_WORKED|PRE_TEST|POST_TEST|EXIST_CFM50|INSTALL_CFM50
S00050203757|RCS_LED_P_R|010_TCP_A_LED|10W TCP A LED|8|64.88|RCS-E|64.88||0.00|0.00|2140223.00||0.00|0.00||0.00|||0.00||0.00||||0.00||2140223.00|0.00|0.00|0.00|0.00|BTU|E||||0.00|07/12/2016|0.00|0.00|0.00|0.00|0.00|0.00|0.00||0.00|0.00||0.00|0.00|0.00|0.00|0.00
S00050203757|RCS_LAMP_P_R|013_TCP_ECOSPRING|13W TCP EcoSave SpringLight|1|5.67|RCS-E|5.67||0.00|0.00|252936.00||0.00|0.00||0.00|||0.00||0.00||||0.00||252936.00|0.00|0.00|0.00|0.00|BTU|E||||0.00|07/12/2016|0.00|0.00|0.00|0.00|0.00|0.00|0.00||0.00|0.00||0.00|0.00|0.00|0.00|0.00
S00050203757|RCS_LAMP_P_R|023_TCP_ECOSPRING|23W TCP EcoSave Springlight|7|43.40|RCS-E|43.40||0.00|0.00|1430058.00||0.00|0.00||0.00|||0.00||0.00||||0.00||1430058.00|0.00|0.00|0.00|0.00|BTU|E||||0.00|07/12/2016|0.00|0.00|0.00|0.00|0.00|0.00|0.00||0.00|0.00||0.00|0.00|0.00|0.00|0.00
S00050203757|HES_PSTRIP_PB_R|TrickleStarPowerStrip|Adv 6 outlet Smart Power Strip|2|41.68|RCS-E|41.68||0.00|0.00|539096.00||0.00|0.00||0.00|||0.00||0.00||||0.00||539096.00|0.00|0.00|0.00|0.00|BTU|E||||0.00|07/12/2016|0.00|0.00|0.00|0.00|0.00|0.00|0.00||0.00|0.00||0.00|0.00|0.00|0.00|0.00
S00050203757|FEE_PIGGYBACK_P_R|PIGGYBACK_FEE|Piggyback Fee|1|15.00|RCS-E|15.00||0.00|0.00|0.00||0.00|0.00||0.00|||0.00||0.00||||0.00||0.00|0.00|0.00|0.00|0.00|BTU|||||0.00|01/31/2017|0.00|0.00|0.00|0.00|0.00|0.00|0.00||0.00|0.00||0.00|0.00|0.00|0.00|0.00
S00050246273|RCS_LED_P_R_R|005_TCP_GLOBE_LED|05W TCP Globe LED|4|46.20|RCS-E|46.20||0.00|0.00|170668.00||0.00|0.00||0.00|||0.00||0.00||||0.00||170668.00|0.00|0.00|0.00|0.00|BTU|E||||0.00|01/04/2017|0.00|0.00|0.00|0.00|0.00|0.00|0.00||0.00|0.00||0.00|0.00|0.00|0.00|0.00
S00050268116|RCS_LED_P_R_R|005_TCP_GLOBE_LED|05W TCP Globe LED|4|46.20|RCS-E|46.20||0.00|0.00|822514.00||0.00|0.00||0.00|||0.00||0.00||||0.00||822514.00|0.00|0.00|0.00|0.00|BTU|E||||0.00|01/11/2017|0.00|0.00|0.00|0.00|0.00|0.00|0.00||0.00|0.00||0.00|0.00|0.00|0.00|0.00
S00050246273|RCS_LED_P_R_R|010_TCP_A_LED|10W TCP A LED|20|158.00|RCS-E|158.00||0.00|0.00|1218816.00||0.00|0.00||0.00|||0.00||0.00||||0.00||1218816.00|0.00|0.00|0.00|0.00|BTU|E||||0.00|01/04/2017|0.00|0.00|0.00|0.00|0.00|0.00|0.00||0.00|0.00||0.00|0.00|0.00|0.00|0.00
S00050268116|RCS_LED_P_R_R|010_TCP_A_LED|10W TCP A LED|10|79.00|RCS-E|79.00||0.00|0.00|1869350.00||0.00|0.00||0.00|||0.00||0.00||||0.00||1869350.00|0.00|0.00|0.00|0.00|BTU|E||||0.00|01/11/2017|0.00|0.00|0.00|0.00|0.00|0.00|0.00||0.00|0.00||0.00|0.00|0.00|0.00|0.00
S00050277886|RCS_LED_P_R_R|010_TCP_A_LED|10W TCP A LED|11|86.90|RCS-E|86.90||0.00|0.00|2007633.00||0.00|0.00||0.00|||0.00||0.00||||0.00||2007633.00|0.00|0.00|0.00|0.00|BTU|E||||0.00|01/24/2017|0.00|0.00|0.00|0.00|0.00|0.00|0.00||0.00|0.00||0.00|0.00|0.00|0.00|0.00
S00050246273|RCS_LED_P_R_R|010_TCP_FLOOD_LED|10W TCP Flood LED|2|19.80|RCS-E|19.80||0.00|0.00|274171.00||0.00|0.00||0.00|||0.00||0.00||||0.00||274171.00|0.00|0.00|0.00|0.00|BTU|E||||0.00|01/04/2017|0.00|0.00|0.00|0.00|0.00|0.00|0.00||0.00|0.00||0.00|0.00|0.00|0.00|0.00
S00050277886|RCS_LED_P_R_R|020_PH_3WAY_LED|5W Philips LED 3-Way|2|35.00|RCS-E|35.00||0.00|0.00|948687.00||0.00|0.00||0.00|||0.00||0.00||||0.00||948687.00|0.00|0.00|0.00|0.00|BTU|E||||0.00|01/24/2017|0.00|0.00|0.00|0.00|0.00|0.00|0.00||0.00|0.00||0.00|0.00|0.00|0.00|0.00
S00050277886|RCS_LED_P_R_R|005_TCP_GLOBE_LED|05W TCP Globe LED|1|11.55|RCS-E|11.55||0.00|0.00|127708.00||0.00|0.00||0.00|||0.00||0.00||||0.00||127708.00|0.00|0.00|0.00|0.00|BTU|E||||0.00|01/24/2017|0.00|0.00|0.00|0.00|0.00|0.00|0.00||0.00|0.00||0.00|0.00|0.00|0.00|0.00
S00050246273|HES_PSTRIP_PB_R_R|TrickleStarPowerStrip|Adv 6 outlet Smart Power Strip|2|41.68|RCS-E|41.68||0.00|0.00|539096.00||0.00|0.00||0.00|||0.00||0.00||||0.00||539096.00|0.00|0.00|0.00|0.00|BTU|E||||0.00|01/04/2017|0.00|0.00|0.00|0.00|0.00|0.00|0.00||0.00|0.00||0.00|0.00|0.00|0.00|0.00
S00050268116|HES_PSTRIP_PB_R_R|TrickleStarPowerStrip|Adv 6 outlet Smart Power Strip|1|20.84|RCS-E|20.84||0.00|0.00|269548.00||0.00|0.00||0.00|||0.00||0.00||||0.00||269548.00|0.00|0.00|0.00|0.00|BTU|E||||0.00|01/11/2017|0.00|0.00|0.00|0.00|0.00|0.00|0.00||0.00|0.00||0.00|0.00|0.00|0.00|0.00
S00050277886|HES_PSTRIP_PB_R_R|TrickleStarPowerStrip|Adv 6 outlet Smart Power Strip|1|20.84|RCS-E|20.84||0.00|0.00|269548.00||0.00|0.00||0.00|||0.00||0.00||||0.00||269548.00|0.00|0.00|0.00|0.00|BTU|E||||0.00|01/24/2017|0.00|0.00|0.00|0.00|0.00|0.00|0.00||0.00|0.00||0.00|0.00|0.00|0.00|0.00
S00050246273|FEE_PIGGYBACK_P_R_R|PIGGYBACK_FEE|Piggyback Fee|1|15.00|RCS-E|15.00||0.00|0.00|0.00||0.00|0.00||0.00|||0.00||0.00||||0.00||0.00|0.00|0.00|0.00|0.00|BTU|||||0.00|01/31/2017|0.00|0.00|0.00|0.00|0.00|0.00|0.00||0.00|0.00||0.00|0.00|0.00|0.00|0.00
S00050268116|FEE_PIGGYBACK_P_R_R|PIGGYBACK_FEE|Piggyback Fee|1|15.00|RCS-E|15.00||0.00|0.00|0.00||0.00|0.00||0.00|||0.00||0.00||||0.00||0.00|0.00|0.00|0.00|0.00|BTU|||||0.00|01/31/2017|0.00|0.00|0.00|0.00|0.00|0.00|0.00||0.00|0.00||0.00|0.00|0.00|0.00|0.00
S00050277886|FEE_PIGGYBACK_P_R_R|PIGGYBACK_FEE|Piggyback Fee|1|15.00|RCS-E|15.00||0.00|0.00|0.00||0.00|0.00||0.00|||0.00||0.00||||0.00||0.00|0.00|0.00|0.00|0.00|BTU|||||0.00|01/31/2017|0.00|0.00|0.00|0.00|0.00|0.00|0.00||0.00|0.00||0.00|0.00|0.00|0.00|0.00
S00050257757|RCS_LED_P|005_TCP_GLOBE_LED|05W TCP Globe LED|10|115.50|RCS-E|115.50||0.00|0.00|2103657.00||0.00|0.00||0.00|||0.00||0.00||||0.00||2103657.00|0.00|0.00|0.00|0.00|BTU|E||||0.00|01/17/2017|0.00|0.00|0.00|0.00|0.00|0.00|0.00||0.00|0.00||0.00|0.00|0.00|0.00|0.00
S00050265715|RCS_LED_P|005_TCP_GLOBE_LED|05W TCP Globe LED|5|57.75|RCS-E|57.75||0.00|0.00|1004105.00||0.00|0.00||0.00|||0.00||0.00||||0.00||1004105.00|0.00|0.00|0.00|0.00|BTU|E||||0.00|01/04/2017|0.00|0.00|0.00|0.00|0.00|0.00|0.00||0.00|0.00||0.00|0.00|0.00|0.00|0.00
S00050265913|RCS_LED_P|005_TCP_GLOBE_LED|05W TCP Globe LED|9|103.95|RCS-E|103.95||0.00|0.00|1812318.00||0.00|0.00||0.00|||0.00||0.00||||0.00||1812318.00|0.00|0.00|0.00|0.00|BTU|E||||0.00|01/10/2017|0.00|0.00|0.00|0.00|0.00|0.00|0.00||0.00|0.00||0.00|0.00|0.00|0.00|0.00
S00050266541|RCS_LED_P|005_TCP_GLOBE_LED|05W TCP Globe LED|7|80.85|RCS-E|80.85||0.00|0.00|1439399.00||0.00|0.00||0.00|||0.00||0.00||||0.00||1439399.00|0.00|0.00|0.00|0.00|BTU|E||||0.00|01/03/2017|0.00|0.00|0.00|0.00|0.00|0.00|0.00||0.00|0.00||0.00|0.00|0.00|0.00|0.00
S00050269262|RCS_LED_P|005_TCP_GLOBE_LED|05W TCP Globe LED|4|46.20|RCS-E|46.20||0.00|0.00|822514.00||0.00|0.00||0.00|||0.00||0.00||||0.00||822514.00|0.00|0.00|0.00|0.00|BTU|E||||0.00|01/12/2017|0.00|0.00|0.00|0.00|0.00|0.00|0.00||0.00|0.00||0.00|0.00|0.00|0.00|0.00
S00050269381|RCS_LED_P|005_TCP_GLOBE_LED|05W TCP Globe LED|5|57.75|RCS-E|57.75||0.00|0.00|1028142.00||0.00|0.00||0.00|||0.00||0.00||||0.00||1028142.00|0.00|0.00|0.00|0.00|BTU|E||||0.00|01/19/2017|0.00|0.00|0.00|0.00|0.00|0.00|0.00||0.00|0.00||0.00|0.00|0.00|0.00|0.00
S00050273828|RCS_LED_P|005_TCP_GLOBE_LED|05W TCP Globe LED|3|34.65|RCS-E|34.65||0.00|0.00|616885.00||0.00|0.00||0.00|||0.00||0.00||||0.00||616885.00|0.00|0.00|0.00|0.00|BTU|E||||0.00|01/17/2017|0.00|0.00|0.00|0.00|0.00|0.00|0.00||0.00|0.00||0.00|0.00|0.00|0.00|0.00
S00050275365|RCS_LED_P|005_TCP_GLOBE_LED|05W TCP Globe LED|3|34.65|RCS-E|34.65||0.00|0.00|383409.00||0.00|0.00||0.00|||0.00||0.00||||0.00||383409.00|0.00|0.00|0.00|0.00|BTU|E||||0.00|01/11/2017|0.00|0.00|0.00|0.00|0.00|0.00|0.00||0.00|0.00||0.00|0.00|0.00|0.00|0.00
S00050275532|RCS_LED_P|005_TCP_GLOBE_LED|05W TCP Globe LED|2|23.10|RCS-E|23.10||0.00|0.00|400979.00||0.00|0.00||0.00|||0.00||0.00||||0.00||400979.00|0.00|0.00|0.00|0.00|BTU|E||||0.00|01/13/2017|0.00|0.00|0.00|0.00|0.00|0.00|0.00||0.00|0.00||0.00|0.00|0.00|0.00|0.00
S00002001349|RCS_LED_P|010_TCP_A_LED|10W TCP A LED|7|55.30|RCS-E|55.30||0.00|0.00|1281350.00||0.00|0.00||0.00|||0.00||0.00||||0.00||1281350.00|0.00|0.00|0.00|0.00|BTU|E||||0.00|01/29/2017|0.00|0.00|0.00|0.00|0.00|0.00|0.00||0.00|0.00||0.00|0.00|0.00|0.00|0.00
S00002075565|RCS_LED_P|010_TCP_A_LED|10W TCP A LED|11|86.90|RCS-E|86.90||0.00|0.00|2056285.00||0.00|0.00||0.00|||0.00||0.00||||0.00||2056285.00|0.00|0.00|0.00|0.00|BTU|E||||0.00|01/24/2017|0.00|0.00|0.00|0.00|0.00|0.00|0.00||0.00|0.00||0.00|0.00|0.00|0.00|0.00
S00002139688|RCS_LED_P|010_TCP_A_LED|10W TCP A LED|6|47.40|RCS-E|47.40||0.00|0.00|1121610.00||0.00|0.00||0.00|||0.00||0.00||||0.00||1121610.00|0.00|0.00|0.00|0.00|BTU|E||||0.00|01/11/2017|0.00|0.00|0.00|0.00|0.00|0.00|0.00||0.00|0.00||0.00|0.00|0.00|0.00|0.00
S00002268230|RCS_LED_P|010_TCP_A_LED|10W TCP A LED|2|15.80|RCS-E|15.80||0.00|0.00|373870.00||0.00|0.00||0.00|||0.00||0.00||||0.00||373870.00|0.00|0.00|0.00|0.00|BTU|E||||0.00|01/03/2017|0.00|0.00|0.00|0.00|0.00|0.00|0.00||0.00|0.00||0.00|0.00|0.00|0.00|0.00
S00002303057|RCS_LED_P|010_TCP_A_LED|10W TCP A LED|11|86.90|RCS-E|86.90||0.00|0.00|2056285.00||0.00|0.00||0.00|||0.00||0.00||||0.00||2056285.00|0.00|0.00|0.00|0.00|BTU|E||||0.00|01/05/2017|0.00|0.00|0.00|0.00|0.00|0.00|0.00||0.00|0.00||0.00|0.00|0.00|0.00|0.00
S00050252937|RCS_LED_P|010_TCP_A_LED|10W TCP A LED|10|79.00|RCS-E|79.00||0.00|0.00|1869349.00||0.00|0.00||0.00|||0.00||0.00||||0.00||1869349.00|0.00|0.00|0.00|0.00|BTU|E||||0.00|12/27/2016|0.00|0.00|0.00|0.00|0.00|0.00|0.00||0.00|0.00||0.00|0.00|0.00|0.00|0.00
S00050254041|RCS_LED_P|010_TCP_A_LED|10W TCP A LED|10|79.00|RCS-E|79.00||0.00|0.00|1869349.00||0.00|0.00||0.00|||0.00||0.00||||0.00||1869349.00|0.00|0.00|0.00|0.00|BTU|E||||0.00|12/29/2016|0.00|0.00|0.00|0.00|0.00|0.00|0.00||0.00|0.00||0.00|0.00|0.00|0.00|0.00
S00050257757|RCS_LED_P|010_TCP_A_LED|10W TCP A LED|10|79.00|RCS-E|79.00||0.00|0.00|1913561.00||0.00|0.00||0.00|||0.00||0.00||||0.00||1913561.00|0.00|0.00|0.00|0.00|BTU|E||||0.00|01/17/2017|0.00|0.00|0.00|0.00|0.00|0.00|0.00||0.00|0.00||0.00|0.00|0.00|0.00|0.00
S00050261778|RCS_LED_P|010_TCP_A_LED|10W TCP A LED|4|31.60|RCS-E|31.60||0.00|0.00|747740.00||0.00|0.00||0.00|||0.00||0.00||||0.00||747740.00|0.00|0.00|0.00|0.00|BTU|E||||0.00|12/23/2016|0.00|0.00|0.00|0.00|0.00|0.00|0.00||0.00|0.00||0.00|0.00|0.00|0.00|0.00
S00050261939|RCS_LED_P|010_TCP_A_LED|10W TCP A LED|3|23.70|RCS-E|23.70||0.00|0.00|548949.00||0.00|0.00||0.00|||0.00||0.00||||0.00||548949.00|0.00|0.00|0.00|0.00|BTU|E||||0.00|01/04/2017|0.00|0.00|0.00|0.00|0.00|0.00|0.00||0.00|0.00||0.00|0.00|0.00|0.00|0.00
S00050265191|RCS_LED_P|010_TCP_A_LED|10W TCP A LED|6|47.40|RCS-E|47.40||0.00|0.00|1121610.00||0.00|0.00||0.00|||0.00||0.00||||0.00||1121610.00|0.00|0.00|0.00|0.00|BTU|E||||0.00|01/15/2017|0.00|0.00|0.00|0.00|0.00|0.00|0.00||0.00|0.00||0.00|0.00|0.00|0.00|0.00
S00050265715|RCS_LED_P|010_TCP_A_LED|10W TCP A LED|16|126.40|RCS-E|126.40||0.00|0.00|2921035.00||0.00|0.00||0.00|||0.00||0.00||||0.00||2921035.00|0.00|0.00|0.00|0.00|BTU|E||||0.00|01/04/2017|0.00|0.00|0.00|0.00|0.00|0.00|0.00||0.00|0.00||0.00|0.00|0.00|0.00|0.00
S00050265913|RCS_LED_P|010_TCP_A_LED|10W TCP A LED|12|94.80|RCS-E|94.80||0.00|0.00|2196365.00||0.00|0.00||0.00|||0.00||0.00||||0.00||2196365.00|0.00|0.00|0.00|0.00|BTU|E||||0.00|01/10/2017|0.00|0.00|0.00|0.00|0.00|0.00|0.00||0.00|0.00||0.00|0.00|0.00|0.00|0.00
S00050266541|RCS_LED_P|010_TCP_A_LED|10W TCP A LED|10|79.00|RCS-E|79.00||0.00|0.00|1869350.00||0.00|0.00||0.00|||0.00||0.00||||0.00||1869350.00|0.00|0.00|0.00|0.00|BTU|E||||0.00|01/03/2017|0.00|0.00|0.00|0.00|0.00|0.00|0.00||0.00|0.00||0.00|0.00|0.00|0.00|0.00
S00050266622|RCS_LED_P|010_TCP_A_LED|10W TCP A LED|10|79.00|RCS-E|79.00||0.00|0.00|1869350.00||0.00|0.00||0.00|||0.00||0.00||||0.00||1869350.00|0.00|0.00|0.00|0.00|BTU|E||||0.00|12/29/2016|0.00|0.00|0.00|0.00|0.00|0.00|0.00||0.00|0.00||0.00|0.00|0.00|0.00|0.00
S00050266754|RCS_LED_P|010_TCP_A_LED|10W TCP A LED|10|79.00|RCS-E|79.00||0.00|0.00|1869349.00||0.00|0.00||0.00|||0.00||0.00||||0.00||1869349.00|0.00|0.00|0.00|0.00|BTU|E||||0.00|01/17/2017|0.00|0.00|0.00|0.00|0.00|0.00|0.00||0.00|0.00||0.00|0.00|0.00|0.00|0.00
S00050266814|RCS_LED_P|010_TCP_A_LED|10W TCP A LED|6|47.40|RCS-E|47.40||0.00|0.00|1121610.00||0.00|0.00||0.00|||0.00||0.00||||0.00||1121610.00|0.00|0.00|0.00|0.00|BTU|E||||0.00|01/14/2017|0.00|0.00|0.00|0.00|0.00|0.00|0.00||0.00|0.00||0.00|0.00|0.00|0.00|0.00
S00050267086|RCS_LED_P|010_TCP_A_LED|10W TCP A LED|5|39.50|RCS-E|39.50||0.00|0.00|934675.00||0.00|0.00||0.00|||0.00||0.00||||0.00||934675.00|0.00|0.00|0.00|0.00|BTU|E||||0.00|01/03/2017|0.00|0.00|0.00|0.00|0.00|0.00|0.00||0.00|0.00||0.00|0.00|0.00|0.00|0.00
S00050267854|RCS_LED_P|010_TCP_A_LED|10W TCP A LED|10|79.00|RCS-E|79.00||0.00|0.00|1869349.00||0.00|0.00||0.00|||0.00||0.00||||0.00||1869349.00|0.00|0.00|0.00|0.00|BTU|E||||0.00|01/05/2017|0.00|0.00|0.00|0.00|0.00|0.00|0.00||0.00|0.00||0.00|0.00|0.00|0.00|0.00
S00050268081|RCS_LED_P|010_TCP_A_LED|10W TCP A LED|10|79.00|RCS-E|79.00||0.00|0.00|1819191.00||0.00|0.00||0.00|||0.00||0.00||||0.00||1819191.00|0.00|0.00|0.00|0.00|BTU|E||||0.00|01/11/2017|0.00|0.00|0.00|0.00|0.00|0.00|0.00||0.00|0.00||0.00|0.00|0.00|0.00|0.00
S00050269208|RCS_LED_P|010_TCP_A_LED|10W TCP A LED|10|79.00|RCS-E|79.00||0.00|0.00|1869349.00||0.00|0.00||0.00|||0.00||0.00||||0.00||1869349.00|0.00|0.00|0.00|0.00|BTU|E||||0.00|01/11/2017|0.00|0.00|0.00|0.00|0.00|0.00|0.00||0.00|0.00||0.00|0.00|0.00|0.00|0.00
S00050269262|RCS_LED_P|010_TCP_A_LED|10W TCP A LED|10|79.00|RCS-E|79.00||0.00|0.00|1869349.00||0.00|0.00||0.00|||0.00||0.00||||0.00||1869349.00|0.00|0.00|0.00|0.00|BTU|E||||0.00|01/12/2017|0.00|0.00|0.00|0.00|0.00|0.00|0.00||0.00|0.00||0.00|0.00|0.00|0.00|0.00
S00050269381|RCS_LED_P|010_TCP_A_LED|10W TCP A LED|4|31.60|RCS-E|31.60||0.00|0.00|747740.00||0.00|0.00||0.00|||0.00||0.00||||0.00||747740.00|0.00|0.00|0.00|0.00|BTU|E||||0.00|01/19/2017|0.00|0.00|0.00|0.00|0.00|0.00|0.00||0.00|0.00||0.00|0.00|0.00|0.00|0.00
S00050269500|RCS_LED_P|010_TCP_A_LED|10W TCP A LED|12|94.80|RCS-E|94.80||0.00|0.00|2243219.00||0.00|0.00||0.00|||0.00||0.00||||0.00||2243219.00|0.00|0.00|0.00|0.00|BTU|E||||0.00|01/12/2017|0.00|0.00|0.00|0.00|0.00|0.00|0.00||0.00|0.00||0.00|0.00|0.00|0.00|0.00
S00050269622|RCS_LED_P|010_TCP_A_LED|10W TCP A LED|10|79.00|RCS-E|79.00||0.00|0.00|1869350.00||0.00|0.00||0.00|||0.00||0.00||||0.00||1869350.00|0.00|0.00|0.00|0.00|BTU|E||||0.00|01/17/2017|0.00|0.00|0.00|0.00|0.00|0.00|0.00||0.00|0.00||0.00|0.00|0.00|0.00|0.00
S00050270064|RCS_LED_P|010_TCP_A_LED|10W TCP A LED|3|23.70|RCS-E|23.70||0.00|0.00|547937.00||0.00|0.00||0.00|||0.00||0.00||||0.00||547937.00|0.00|0.00|0.00|0.00|BTU|E||||0.00|01/14/2017|0.00|0.00|0.00|0.00|0.00|0.00|0.00||0.00|0.00||0.00|0.00|0.00|0.00|0.00
S00050270523|RCS_LED_P|010_TCP_A_LED|10W TCP A LED|11|86.90|RCS-E|86.90||0.00|0.00|2153583.00||0.00|0.00||0.00|||0.00||0.00||||0.00||2153583.00|0.00|0.00|0.00|0.00|BTU|E||||0.00|01/18/2017|0.00|0.00|0.00|0.00|0.00|0.00|0.00||0.00|0.00||0.00|0.00|0.00|0.00|0.00
S00050270808|RCS_LED_P|010_TCP_A_LED|10W TCP A LED|8|63.20|RCS-E|63.20||0.00|0.00|1459530.00||0.00|0.00||0.00|||0.00||0.00||||0.00||1459530.00|0.00|0.00|0.00|0.00|BTU|E||||0.00|01/13/2017|0.00|0.00|0.00|0.00|0.00|0.00|0.00||0.00|0.00||0.00|0.00|0.00|0.00|0.00
S00050270908|RCS_LED_P|010_TCP_A_LED|10W TCP A LED|3|23.70|RCS-E|23.70||0.00|0.00|560805.00||0.00|0.00||0.00|||0.00||0.00||||0.00||560805.00|0.00|0.00|0.00|0.00|BTU|E||||0.00|01/14/2017|0.00|0.00|0.00|0.00|0.00|0.00|0.00||0.00|0.00||0.00|0.00|0.00|0.00|0.00
S00050271049|RCS_LED_P|010_TCP_A_LED|10W TCP A LED|2|15.80|RCS-E|15.80||0.00|0.00|373870.00||0.00|0.00||0.00|||0.00||0.00||||0.00||373870.00|0.00|0.00|0.00|0.00|BTU|E||||0.00|01/24/2017|0.00|0.00|0.00|0.00|0.00|0.00|0.00||0.00|0.00||0.00|0.00|0.00|0.00|0.00
S00050271943|RCS_LED_P|010_TCP_A_LED|10W TCP A LED|10|79.00|RCS-E|79.00||0.00|0.00|1869350.00||0.00|0.00||0.00|||0.00||0.00||||0.00||1869350.00|0.00|0.00|0.00|0.00|BTU|E||||0.00|01/25/2017|0.00|0.00|0.00|0.00|0.00|0.00|0.00||0.00|0.00||0.00|0.00|0.00|0.00|0.00
S00050273186|RCS_LED_P|010_TCP_A_LED|10W TCP A LED|3|23.70|RCS-E|23.70||0.00|0.00|560805.00||0.00|0.00||0.00|||0.00||0.00||||0.00||560805.00|0.00|0.00|0.00|0.00|BTU|E||||0.00|01/25/2017|0.00|0.00|0.00|0.00|0.00|0.00|0.00||0.00|0.00||0.00|0.00|0.00|0.00|0.00
S00050273235|RCS_LED_P|010_TCP_A_LED|10W TCP A LED|9|71.10|RCS-E|71.10||0.00|0.00|1682415.00||0.00|0.00||0.00|||0.00||0.00||||0.00||1682415.00|0.00|0.00|0.00|0.00|BTU|E||||0.00|01/25/2017|0.00|0.00|0.00|0.00|0.00|0.00|0.00||0.00|0.00||0.00|0.00|0.00|0.00|0.00
S00050273828|RCS_LED_P|010_TCP_A_LED|10W TCP A LED|7|55.30|RCS-E|55.30||0.00|0.00|1308545.00||0.00|0.00||0.00|||0.00||0.00||||0.00||1308545.00|0.00|0.00|0.00|0.00|BTU|E||||0.00|01/17/2017|0.00|0.00|0.00|0.00|0.00|0.00|0.00||0.00|0.00||0.00|0.00|0.00|0.00|0.00
S00050275365|RCS_LED_P|010_TCP_A_LED|10W TCP A LED|3|23.70|RCS-E|23.70||0.00|0.00|547945.00||0.00|0.00||0.00|||0.00||0.00||||0.00||547945.00|0.00|0.00|0.00|0.00|BTU|E||||0.00|01/11/2017|0.00|0.00|0.00|0.00|0.00|0.00|0.00||0.00|0.00||0.00|0.00|0.00|0.00|0.00
S00050275442|RCS_LED_P|010_TCP_A_LED|10W TCP A LED|12|94.80|RCS-E|94.80||0.00|0.00|2243220.00||0.00|0.00||0.00|||0.00||0.00||||0.00||2243220.00|0.00|0.00|0.00|0.00|BTU|E||||0.00|12/29/2016|0.00|0.00|0.00|0.00|0.00|0.00|0.00||0.00|0.00||0.00|0.00|0.00|0.00|0.00
S00050275532|RCS_LED_P|010_TCP_A_LED|10W TCP A LED|10|79.00|RCS-E|79.00||0.00|0.00|1824478.00||0.00|0.00||0.00|||0.00||0.00||||0.00||1824478.00|0.00|0.00|0.00|0.00|BTU|E||||0.00|01/13/2017|0.00|0.00|0.00|0.00|0.00|0.00|0.00||0.00|0.00||0.00|0.00|0.00|0.00|0.00
S00050276909|RCS_LED_P|010_TCP_A_LED|10W TCP A LED|6|47.40|RCS-E|47.40||0.00|0.00|1121610.00||0.00|0.00||0.00|||0.00||0.00||||0.00||1121610.00|0.00|0.00|0.00|0.00|BTU|E||||0.00|01/05/2017|0.00|0.00|0.00|0.00|0.00|0.00|0.00||0.00|0.00||0.00|0.00|0.00|0.00|0.00
S00050282172|RCS_LED_P|010_TCP_A_LED|10W TCP A LED|2|15.80|RCS-E|15.80||0.00|0.00|373870.00||0.00|0.00||0.00|||0.00||0.00||||0.00||373870.00|0.00|0.00|0.00|0.00|BTU|E||||0.00|01/23/2017|0.00|0.00|0.00|0.00|0.00|0.00|0.00||0.00|0.00||0.00|0.00|0.00|0.00|0.00
S00050283491|RCS_LED_P|010_TCP_A_LED|10W TCP A LED|10|79.00|RCS-E|79.00||0.00|0.00|1869349.00||0.00|0.00||0.00|||0.00||0.00||||0.00||1869349.00|0.00|0.00|0.00|0.00|BTU|E||||0.00|01/23/2017|0.00|0.00|0.00|0.00|0.00|0.00|0.00||0.00|0.00||0.00|0.00|0.00|0.00|0.00
S00002026391|RCS_LED_P|010_TCP_FLOOD_LED|10W TCP Flood LED|5|49.50|RCS-E|49.50||0.00|0.00|1008910.00||0.00|0.00||0.00|||0.00||0.00||||0.00||1008910.00|0.00|0.00|0.00|0.00|BTU|E||||0.00|01/27/2017|0.00|0.00|0.00|0.00|0.00|0.00|0.00||0.00|0.00||0.00|0.00|0.00|0.00|0.00
S00002075565|RCS_LED_P|010_TCP_FLOOD_LED|10W TCP Flood LED|5|49.50|RCS-E|49.50||0.00|0.00|1028142.00||0.00|0.00||0.00|||0.00||0.00||||0.00||1028142.00|0.00|0.00|0.00|0.00|BTU|E||||0.00|01/24/2017|0.00|0.00|0.00|0.00|0.00|0.00|0.00||0.00|0.00||0.00|0.00|0.00|0.00|0.00
S00050265715|RCS_LED_P|010_TCP_FLOOD_LED|10W TCP Flood LED|36|356.40|RCS-E|356.40||0.00|0.00|6576197.00||0.00|0.00||0.00|||0.00||0.00||||0.00||6576197.00|0.00|0.00|0.00|0.00|BTU|E||||0.00|01/04/2017|0.00|0.00|0.00|0.00|0.00|0.00|0.00||0.00|0.00||0.00|0.00|0.00|0.00|0.00
S00050265913|RCS_LED_P|010_TCP_FLOOD_LED|10W TCP Flood LED|4|39.60|RCS-E|39.60||0.00|0.00|805093.00||0.00|0.00||0.00|||0.00||0.00||||0.00||805093.00|0.00|0.00|0.00|0.00|BTU|E||||0.00|01/10/2017|0.00|0.00|0.00|0.00|0.00|0.00|0.00||0.00|0.00||0.00|0.00|0.00|0.00|0.00
S00050266754|RCS_LED_P|010_TCP_FLOOD_LED|10W TCP Flood LED|4|39.60|RCS-E|39.60||0.00|0.00|822514.00||0.00|0.00||0.00|||0.00||0.00||||0.00||822514.00|0.00|0.00|0.00|0.00|BTU|E||||0.00|01/17/2017|0.00|0.00|0.00|0.00|0.00|0.00|0.00||0.00|0.00||0.00|0.00|0.00|0.00|0.00
S00050266814|RCS_LED_P|010_TCP_FLOOD_LED|10W TCP Flood LED|16|158.40|RCS-E|158.40||0.00|0.00|2990960.00||0.00|0.00||0.00|||0.00||0.00||||0.00||2990960.00|0.00|0.00|0.00|0.00|BTU|E||||0.00|01/14/2017|0.00|0.00|0.00|0.00|0.00|0.00|0.00||0.00|0.00||0.00|0.00|0.00|0.00|0.00
S00050267854|RCS_LED_P|010_TCP_FLOOD_LED|10W TCP Flood LED|2|19.80|RCS-E|19.80||0.00|0.00|373870.00||0.00|0.00||0.00|||0.00||0.00||||0.00||373870.00|0.00|0.00|0.00|0.00|BTU|E||||0.00|01/05/2017|0.00|0.00|0.00|0.00|0.00|0.00|0.00||0.00|0.00||0.00|0.00|0.00|0.00|0.00
S00050269208|RCS_LED_P|010_TCP_FLOOD_LED|10W TCP Flood LED|8|79.20|RCS-E|79.20||0.00|0.00|2691863.00||0.00|0.00||0.00|||0.00||0.00||||0.00||2691863.00|0.00|0.00|0.00|0.00|BTU|E||||0.00|01/11/2017|0.00|0.00|0.00|0.00|0.00|0.00|0.00||0.00|0.00||0.00|0.00|0.00|0.00|0.00
S00050269262|RCS_LED_P|010_TCP_FLOOD_LED|10W TCP Flood LED|6|59.40|RCS-E|59.40||0.00|0.00|1121610.00||0.00|0.00||0.00|||0.00||0.00||||0.00||1121610.00|0.00|0.00|0.00|0.00|BTU|E||||0.00|01/12/2017|0.00|0.00|0.00|0.00|0.00|0.00|0.00||0.00|0.00||0.00|0.00|0.00|0.00|0.00
S00050273186|RCS_LED_P|010_TCP_FLOOD_LED|10W TCP Flood LED|4|39.60|RCS-E|39.60||0.00|0.00|822514.00||0.00|0.00||0.00|||0.00||0.00||||0.00||822514.00|0.00|0.00|0.00|0.00|BTU|E||||0.00|01/25/2017|0.00|0.00|0.00|0.00|0.00|0.00|0.00||0.00|0.00||0.00|0.00|0.00|0.00|0.00
S00050275365|RCS_LED_P|010_TCP_FLOOD_LED|10W TCP Flood LED|2|19.80|RCS-E|19.80||0.00|0.00|401667.00||0.00|0.00||0.00|||0.00||0.00||||0.00||401667.00|0.00|0.00|0.00|0.00|BTU|E||||0.00|01/11/2017|0.00|0.00|0.00|0.00|0.00|0.00|0.00||0.00|0.00||0.00|0.00|0.00|0.00|0.00
S00002001349|RCS_LAMP_P|013_TCP_ECOSPRING|13W TCP EcoSave SpringLight|1|5.60|RCS-E|5.60||0.00|0.00|172067.00||0.00|0.00||0.00|||0.00||0.00||||0.00||172067.00|0.00|0.00|0.00|0.00|BTU|E||||0.00|01/29/2017|0.00|0.00|0.00|0.00|0.00|0.00|0.00||0.00|0.00||0.00|0.00|0.00|0.00|0.00
S00050257757|RCS_LAMP_P|013_TCP_ECOSPRING|13W TCP EcoSave SpringLight|1|5.60|RCS-E|5.60||0.00|0.00|179664.00||0.00|0.00||0.00|||0.00||0.00||||0.00||179664.00|0.00|0.00|0.00|0.00|BTU|E||||0.00|01/17/2017|0.00|0.00|0.00|0.00|0.00|0.00|0.00||0.00|0.00||0.00|0.00|0.00|0.00|0.00
S00050265913|RCS_LAMP_P|013_TCP_ECOSPRING|13W TCP EcoSave SpringLight|6|33.60|RCS-E|33.60||0.00|0.00|1031982.00||0.00|0.00||0.00|||0.00||0.00||||0.00||1031982.00|0.00|0.00|0.00|0.00|BTU|E||||0.00|01/10/2017|0.00|0.00|0.00|0.00|0.00|0.00|0.00||0.00|0.00||0.00|0.00|0.00|0.00|0.00
S00050269622|RCS_LAMP_P|013_TCP_ECOSPRING|13W TCP EcoSave SpringLight|12|67.20|RCS-E|67.20||0.00|0.00|2108626.00||0.00|0.00||0.00|||0.00||0.00||||0.00||2108626.00|0.00|0.00|0.00|0.00|BTU|E||||0.00|01/17/2017|0.00|0.00|0.00|0.00|0.00|0.00|0.00||0.00|0.00||0.00|0.00|0.00|0.00|0.00
S00050270523|RCS_LAMP_P|013_TCP_ECOSPRING|13W TCP EcoSave SpringLight|7|39.20|RCS-E|39.20||0.00|0.00|1287563.00||0.00|0.00||0.00|||0.00||0.00||||0.00||1287563.00|0.00|0.00|0.00|0.00|BTU|E||||0.00|01/18/2017|0.00|0.00|0.00|0.00|0.00|0.00|0.00||0.00|0.00||0.00|0.00|0.00|0.00|0.00
S00050271943|RCS_LAMP_P|013_TCP_ECOSPRING|13W TCP EcoSave SpringLight|10|56.00|RCS-E|56.00||0.00|0.00|1757188.00||0.00|0.00||0.00|||0.00||0.00||||0.00||1757188.00|0.00|0.00|0.00|0.00|BTU|E||||0.00|01/25/2017|0.00|0.00|0.00|0.00|0.00|0.00|0.00||0.00|0.00||0.00|0.00|0.00|0.00|0.00
S00050283491|RCS_LAMP_P|013_TCP_ECOSPRING|13W TCP EcoSave SpringLight|13|72.80|RCS-E|72.80||0.00|0.00|2284344.00||0.00|0.00||0.00|||0.00||0.00||||0.00||2284344.00|0.00|0.00|0.00|0.00|BTU|E||||0.00|01/23/2017|0.00|0.00|0.00|0.00|0.00|0.00|0.00||0.00|0.00||0.00|0.00|0.00|0.00|0.00
S00050286544|RCS_LAMP_P|013_TCP_ECOSPRING|13W TCP EcoSave SpringLight|1|5.60|RCS-E|5.60||0.00|0.00|171620.00||0.00|0.00||0.00|||0.00||0.00||||0.00||171620.00|0.00|0.00|0.00|0.00|BTU|E||||0.00|01/29/2017|0.00|0.00|0.00|0.00|0.00|0.00|0.00||0.00|0.00||0.00|0.00|0.00|0.00|0.00
S00050257757|RCS_LAMP_P|023_TCP_ECOSPRING|23W TCP EcoSave Springlight|7|42.70|RCS-E|42.70||0.00|0.00|2061181.00||0.00|0.00||0.00|||0.00||0.00||||0.00||2061181.00|0.00|0.00|0.00|0.00|BTU|E||||0.00|01/17/2017|0.00|0.00|0.00|0.00|0.00|0.00|0.00||0.00|0.00||0.00|0.00|0.00|0.00|0.00
S00050269622|RCS_LAMP_P|023_TCP_ECOSPRING|23W TCP EcoSave Springlight|4|24.40|RCS-E|24.40||0.00|0.00|1151519.00||0.00|0.00||0.00|||0.00||0.00||||0.00||1151519.00|0.00|0.00|0.00|0.00|BTU|E||||0.00|01/17/2017|0.00|0.00|0.00|0.00|0.00|0.00|0.00||0.00|0.00||0.00|0.00|0.00|0.00|0.00
S00050270523|RCS_LAMP_P|023_TCP_ECOSPRING|23W TCP EcoSave Springlight|1|6.10|RCS-E|6.10||0.00|0.00|301502.00||0.00|0.00||0.00|||0.00||0.00||||0.00||301502.00|0.00|0.00|0.00|0.00|BTU|E||||0.00|01/18/2017|0.00|0.00|0.00|0.00|0.00|0.00|0.00||0.00|0.00||0.00|0.00|0.00|0.00|0.00
S00050270523|RCS_LAMP_P|030_MAX_3WAY|30W Maxlite 3-Way|2|17.10|RCS-E|17.10||0.00|0.00|939299.00||0.00|0.00||0.00|||0.00||0.00||||0.00||939299.00|0.00|0.00|0.00|0.00|BTU|E||||0.00|01/18/2017|0.00|0.00|0.00|0.00|0.00|0.00|0.00||0.00|0.00||0.00|0.00|0.00|0.00|0.00
S00002001349|RCS_LED_P|020_PH_3WAY_LED|5W Philips LED 3-Way|2|35.00|RCS-E|35.00||0.00|0.00|951860.00||0.00|0.00||0.00|||0.00||0.00||||0.00||951860.00|0.00|0.00|0.00|0.00|BTU|E||||0.00|01/29/2017|0.00|0.00|0.00|0.00|0.00|0.00|0.00||0.00|0.00||0.00|0.00|0.00|0.00|0.00
S00002075565|RCS_LED_P|020_PH_3WAY_LED|5W Philips LED 3-Way|2|35.00|RCS-E|35.00||0.00|0.00|972062.00||0.00|0.00||0.00|||0.00||0.00||||0.00||972062.00|0.00|0.00|0.00|0.00|BTU|E||||0.00|01/24/2017|0.00|0.00|0.00|0.00|0.00|0.00|0.00||0.00|0.00||0.00|0.00|0.00|0.00|0.00
S00002303057|RCS_LED_P|020_PH_3WAY_LED|5W Philips LED 3-Way|2|35.00|RCS-E|35.00||0.00|0.00|972062.00||0.00|0.00||0.00|||0.00||0.00||||0.00||972062.00|0.00|0.00|0.00|0.00|BTU|E||||0.00|01/05/2017|0.00|0.00|0.00|0.00|0.00|0.00|0.00||0.00|0.00||0.00|0.00|0.00|0.00|0.00
S00050254041|RCS_LED_P|020_PH_3WAY_LED|5W Philips LED 3-Way|2|35.00|RCS-E|35.00||0.00|0.00|972061.00||0.00|0.00||0.00|||0.00||0.00||||0.00||972061.00|0.00|0.00|0.00|0.00|BTU|E||||0.00|12/29/2016|0.00|0.00|0.00|0.00|0.00|0.00|0.00||0.00|0.00||0.00|0.00|0.00|0.00|0.00
S00050267854|RCS_LED_P|020_PH_3WAY_LED|5W Philips LED 3-Way|2|35.00|RCS-E|35.00||0.00|0.00|299096.00||0.00|0.00||0.00|||0.00||0.00||||0.00||299096.00|0.00|0.00|0.00|0.00|BTU|E||||0.00|01/05/2017|0.00|0.00|0.00|0.00|0.00|0.00|0.00||0.00|0.00||0.00|0.00|0.00|0.00|0.00
S00050268081|RCS_LED_P|020_PH_3WAY_LED|5W Philips LED 3-Way|2|35.00|RCS-E|35.00||0.00|0.00|291071.00||0.00|0.00||0.00|||0.00||0.00||||0.00||291071.00|0.00|0.00|0.00|0.00|BTU|E||||0.00|01/11/2017|0.00|0.00|0.00|0.00|0.00|0.00|0.00||0.00|0.00||0.00|0.00|0.00|0.00|0.00
S00050269208|RCS_LED_P|020_PH_3WAY_LED|5W Philips LED 3-Way|2|35.00|RCS-E|35.00||0.00|0.00|972061.00||0.00|0.00||0.00|||0.00||0.00||||0.00||972061.00|0.00|0.00|0.00|0.00|BTU|E||||0.00|01/11/2017|0.00|0.00|0.00|0.00|0.00|0.00|0.00||0.00|0.00||0.00|0.00|0.00|0.00|0.00
S00050269262|RCS_LED_P|020_PH_3WAY_LED|5W Philips LED 3-Way|2|35.00|RCS-E|35.00||0.00|0.00|299096.00||0.00|0.00||0.00|||0.00||0.00||||0.00||299096.00|0.00|0.00|0.00|0.00|BTU|E||||0.00|01/12/2017|0.00|0.00|0.00|0.00|0.00|0.00|0.00||0.00|0.00||0.00|0.00|0.00|0.00|0.00
S00050270523|RCS_LED_P|020_PH_3WAY_LED|5W Philips LED 3-Way|2|35.00|RCS-E|35.00||0.00|0.00|1017574.00||0.00|0.00||0.00|||0.00||0.00||||0.00||1017574.00|0.00|0.00|0.00|0.00|BTU|E||||0.00|01/18/2017|0.00|0.00|0.00|0.00|0.00|0.00|0.00||0.00|0.00||0.00|0.00|0.00|0.00|0.00
S00050271943|RCS_LED_P|020_PH_3WAY_LED|5W Philips LED 3-Way|2|35.00|RCS-E|35.00||0.00|0.00|972062.00||0.00|0.00||0.00|||0.00||0.00||||0.00||972062.00|0.00|0.00|0.00|0.00|BTU|E||||0.00|01/25/2017|0.00|0.00|0.00|0.00|0.00|0.00|0.00||0.00|0.00||0.00|0.00|0.00|0.00|0.00
S00050273235|RCS_LED_P|020_PH_3WAY_LED|5W Philips LED 3-Way|1|17.50|RCS-E|17.50||0.00|0.00|149548.00||0.00|0.00||0.00|||0.00||0.00||||0.00||149548.00|0.00|0.00|0.00|0.00|BTU|E||||0.00|01/25/2017|0.00|0.00|0.00|0.00|0.00|0.00|0.00||0.00|0.00||0.00|0.00|0.00|0.00|0.00
S00050275532|RCS_LED_P|020_PH_3WAY_LED|5W Philips LED 3-Way|1|17.50|RCS-E|17.50||0.00|0.00|473884.00||0.00|0.00||0.00|||0.00||0.00||||0.00||473884.00|0.00|0.00|0.00|0.00|BTU|E||||0.00|01/13/2017|0.00|0.00|0.00|0.00|0.00|0.00|0.00||0.00|0.00||0.00|0.00|0.00|0.00|0.00
S00050282172|RCS_LED_P|020_PH_3WAY_LED|5W Philips LED 3-Way|2|35.00|RCS-E|35.00||0.00|0.00|972061.00||0.00|0.00||0.00|||0.00||0.00||||0.00||972061.00|0.00|0.00|0.00|0.00|BTU|E||||0.00|01/23/2017|0.00|0.00|0.00|0.00|0.00|0.00|0.00||0.00|0.00||0.00|0.00|0.00|0.00|0.00
S00050271049|RCS_LED_P|005_TCP_TORP_LED|5W TCP LED Candle Base Dim|3|28.35|RCS-E|28.35||0.00|0.00|616885.00||0.00|0.00||0.00|||0.00||0.00||||0.00||616885.00|0.00|0.00|0.00|0.00|BTU|E||||0.00|01/24/2017|0.00|0.00|0.00|0.00|0.00|0.00|0.00||0.00|0.00||0.00|0.00|0.00|0.00|0.00
S00050271943|RCS_LED_P|005_TCP_TORP_LED|5W TCP LED Candle Base Dim|6|56.70|RCS-E|56.70||0.00|0.00|1233771.00||0.00|0.00||0.00|||0.00||0.00||||0.00||1233771.00|0.00|0.00|0.00|0.00|BTU|E||||0.00|01/25/2017|0.00|0.00|0.00|0.00|0.00|0.00|0.00||0.00|0.00||0.00|0.00|0.00|0.00|0.00
S00050273235|RCS_LED_P|005_TCP_TORP_LED|5W TCP LED Candle Base Dim|6|56.70|RCS-E|56.70||0.00|0.00|1233771.00||0.00|0.00||0.00|||0.00||0.00||||0.00||1233771.00|0.00|0.00|0.00|0.00|BTU|E||||0.00|01/25/2017|0.00|0.00|0.00|0.00|0.00|0.00|0.00||0.00|0.00||0.00|0.00|0.00|0.00|0.00
S00050282172|RCS_LED_P|005_TCP_TORP_LED|5W TCP LED Candle Base Dim|3|28.35|RCS-E|28.35||0.00|0.00|616885.00||0.00|0.00||0.00|||0.00||0.00||||0.00||616885.00|0.00|0.00|0.00|0.00|BTU|E||||0.00|01/23/2017|0.00|0.00|0.00|0.00|0.00|0.00|0.00||0.00|0.00||0.00|0.00|0.00|0.00|0.00
S00002001349|RCS_LED_P|005_TCP_GLOBE_LED|05W TCP Globe LED|1|11.55|RCS-E|11.55||0.00|0.00|201355.00||0.00|0.00||0.00|||0.00||0.00||||0.00||201355.00|0.00|0.00|0.00|0.00|BTU|E||||0.00|01/29/2017|0.00|0.00|0.00|0.00|0.00|0.00|0.00||0.00|0.00||0.00|0.00|0.00|0.00|0.00
S00002003791|RCS_LED_P|005_TCP_TORP_LED|5W TCP LED Candle Base Dim|5|47.25|RCS-E|47.25||0.00|0.00|1028142.00||0.00|0.00||0.00|||0.00||0.00||||0.00||1028142.00|0.00|0.00|0.00|0.00|BTU|E||||0.00|12/27/2016|0.00|0.00|0.00|0.00|0.00|0.00|0.00||0.00|0.00||0.00|0.00|0.00|0.00|0.00
S00002303057|RCS_LED_P|005_TCP_TORP_LED|5W TCP LED Candle Base Dim|13|122.85|RCS-E|122.85||0.00|0.00|2673169.00||0.00|0.00||0.00|||0.00||0.00||||0.00||2673169.00|0.00|0.00|0.00|0.00|BTU|E||||0.00|01/05/2017|0.00|0.00|0.00|0.00|0.00|0.00|0.00||0.00|0.00||0.00|0.00|0.00|0.00|0.00
S00050254041|RCS_LED_P|005_TCP_TORP_LED|5W TCP LED Candle Base Dim|3|28.35|RCS-E|28.35||0.00|0.00|616885.00||0.00|0.00||0.00|||0.00||0.00||||0.00||616885.00|0.00|0.00|0.00|0.00|BTU|E||||0.00|12/29/2016|0.00|0.00|0.00|0.00|0.00|0.00|0.00||0.00|0.00||0.00|0.00|0.00|0.00|0.00
S00050265191|RCS_LED_P|005_TCP_TORP_LED|5W TCP LED Candle Base Dim|6|56.70|RCS-E|56.70||0.00|0.00|1233771.00||0.00|0.00||0.00|||0.00||0.00||||0.00||1233771.00|0.00|0.00|0.00|0.00|BTU|E||||0.00|01/15/2017|0.00|0.00|0.00|0.00|0.00|0.00|0.00||0.00|0.00||0.00|0.00|0.00|0.00|0.00
S00050265715|RCS_LED_P|005_TCP_TORP_LED|5W TCP LED Candle Base Dim|30|283.50|RCS-E|283.50||0.00|0.00|6024078.00||0.00|0.00||0.00|||0.00||0.00||||0.00||6024078.00|0.00|0.00|0.00|0.00|BTU|E||||0.00|01/04/2017|0.00|0.00|0.00|0.00|0.00|0.00|0.00||0.00|0.00||0.00|0.00|0.00|0.00|0.00
S00050267086|RCS_LED_P|005_TCP_TORP_LED|5W TCP LED Candle Base Dim|5|47.25|RCS-E|47.25||0.00|0.00|1028142.00||0.00|0.00||0.00|||0.00||0.00||||0.00||1028142.00|0.00|0.00|0.00|0.00|BTU|E||||0.00|01/03/2017|0.00|0.00|0.00|0.00|0.00|0.00|0.00||0.00|0.00||0.00|0.00|0.00|0.00|0.00
S00050267824|RCS_LED_P|005_TCP_TORP_LED|5W TCP LED Candle Base Dim|12|113.40|RCS-E|113.40||0.00|0.00|2467541.00||0.00|0.00||0.00|||0.00||0.00||||0.00||2467541.00|0.00|0.00|0.00|0.00|BTU|E||||0.00|01/12/2017|0.00|0.00|0.00|0.00|0.00|0.00|0.00||0.00|0.00||0.00|0.00|0.00|0.00|0.00
S00050268081|RCS_LED_P|005_TCP_TORP_LED|5W TCP LED Candle Base Dim|5|47.25|RCS-E|47.25||0.00|0.00|1000555.00||0.00|0.00||0.00|||0.00||0.00||||0.00||1000555.00|0.00|0.00|0.00|0.00|BTU|E||||0.00|01/11/2017|0.00|0.00|0.00|0.00|0.00|0.00|0.00||0.00|0.00||0.00|0.00|0.00|0.00|0.00
S00050269208|RCS_LED_P|005_TCP_TORP_LED|5W TCP LED Candle Base Dim|2|18.90|RCS-E|18.90||0.00|0.00|411257.00||0.00|0.00||0.00|||0.00||0.00||||0.00||411257.00|0.00|0.00|0.00|0.00|BTU|E||||0.00|01/11/2017|0.00|0.00|0.00|0.00|0.00|0.00|0.00||0.00|0.00||0.00|0.00|0.00|0.00|0.00
S00050269262|RCS_LED_P|005_TCP_TORP_LED|5W TCP LED Candle Base Dim|13|122.85|RCS-E|122.85||0.00|0.00|2673169.00||0.00|0.00||0.00|||0.00||0.00||||0.00||2673169.00|0.00|0.00|0.00|0.00|BTU|E||||0.00|01/12/2017|0.00|0.00|0.00|0.00|0.00|0.00|0.00||0.00|0.00||0.00|0.00|0.00|0.00|0.00
S00050269381|RCS_LED_P|005_TCP_TORP_LED|5W TCP LED Candle Base Dim|11|103.95|RCS-E|103.95||0.00|0.00|2261912.00||0.00|0.00||0.00|||0.00||0.00||||0.00||2261912.00|0.00|0.00|0.00|0.00|BTU|E||||0.00|01/19/2017|0.00|0.00|0.00|0.00|0.00|0.00|0.00||0.00|0.00||0.00|0.00|0.00|0.00|0.00
S00050269500|RCS_LED_P|005_TCP_TORP_LED|5W TCP LED Candle Base Dim|3|28.35|RCS-E|28.35||0.00|0.00|616885.00||0.00|0.00||0.00|||0.00||0.00||||0.00||616885.00|0.00|0.00|0.00|0.00|BTU|E||||0.00|01/12/2017|0.00|0.00|0.00|0.00|0.00|0.00|0.00||0.00|0.00||0.00|0.00|0.00|0.00|0.00
S00050269622|RCS_LED_P|005_TCP_TORP_LED|5W TCP LED Candle Base Dim|5|47.25|RCS-E|47.25||0.00|0.00|1028142.00||0.00|0.00||0.00|||0.00||0.00||||0.00||1028142.00|0.00|0.00|0.00|0.00|BTU|E||||0.00|01/17/2017|0.00|0.00|0.00|0.00|0.00|0.00|0.00||0.00|0.00||0.00|0.00|0.00|0.00|0.00
S00050270523|RCS_LED_P|005_TCP_TORP_LED|5W TCP LED Candle Base Dim|7|66.15|RCS-E|66.15||0.00|0.00|1506990.00||0.00|0.00||0.00|||0.00||0.00||||0.00||1506990.00|0.00|0.00|0.00|0.00|BTU|E||||0.00|01/18/2017|0.00|0.00|0.00|0.00|0.00|0.00|0.00||0.00|0.00||0.00|0.00|0.00|0.00|0.00
S00050275365|RCS_LED_P|005_TCP_TORP_LED|5W TCP LED Candle Base Dim|3|28.35|RCS-E|28.35||0.00|0.00|383513.00||0.00|0.00||0.00|||0.00||0.00||||0.00||383513.00|0.00|0.00|0.00|0.00|BTU|E||||0.00|01/11/2017|0.00|0.00|0.00|0.00|0.00|0.00|0.00||0.00|0.00||0.00|0.00|0.00|0.00|0.00
S00002143035|RCS_LED_P|008_TCP_20FLOOD_LED|8w TCP LED Dimmable R20 Flood|2|22.30|RCS-E|22.30||0.00|0.00|388825.00||0.00|0.00||0.00|||0.00||0.00||||0.00||388825.00|0.00|0.00|0.00|0.00|BTU|E||||0.00|01/06/2017|0.00|0.00|0.00|0.00|0.00|0.00|0.00||0.00|0.00||0.00|0.00|0.00|0.00|0.00
S00050265913|RCS_LED_P|008_TCP_20FLOOD_LED|8w TCP LED Dimmable R20 Flood|6|66.90|RCS-E|66.90||0.00|0.00|922197.00||0.00|0.00||0.00|||0.00||0.00||||0.00||922197.00|0.00|0.00|0.00|0.00|BTU|E||||0.00|01/10/2017|0.00|0.00|0.00|0.00|0.00|0.00|0.00||0.00|0.00||0.00|0.00|0.00|0.00|0.00
S00050266814|RCS_LED_P|008_TCP_20FLOOD_LED|8w TCP LED Dimmable R20 Flood|3|33.45|RCS-E|33.45||0.00|0.00|583237.00||0.00|0.00||0.00|||0.00||0.00||||0.00||583237.00|0.00|0.00|0.00|0.00|BTU|E||||0.00|01/14/2017|0.00|0.00|0.00|0.00|0.00|0.00|0.00||0.00|0.00||0.00|0.00|0.00|0.00|0.00
S00050267086|RCS_LED_P|008_TCP_20FLOOD_LED|8w TCP LED Dimmable R20 Flood|3|33.45|RCS-E|33.45||0.00|0.00|583237.00||0.00|0.00||0.00|||0.00||0.00||||0.00||583237.00|0.00|0.00|0.00|0.00|BTU|E||||0.00|01/03/2017|0.00|0.00|0.00|0.00|0.00|0.00|0.00||0.00|0.00||0.00|0.00|0.00|0.00|0.00
S00050267854|RCS_LED_P|008_TCP_20FLOOD_LED|8w TCP LED Dimmable R20 Flood|2|22.30|RCS-E|22.30||0.00|0.00|388825.00||0.00|0.00||0.00|||0.00||0.00||||0.00||388825.00|0.00|0.00|0.00|0.00|BTU|E||||0.00|01/05/2017|0.00|0.00|0.00|0.00|0.00|0.00|0.00||0.00|0.00||0.00|0.00|0.00|0.00|0.00
S00050269262|RCS_LED_P|008_TCP_20FLOOD_LED|8w TCP LED Dimmable R20 Flood|2|22.30|RCS-E|22.30||0.00|0.00|388825.00||0.00|0.00||0.00|||0.00||0.00||||0.00||388825.00|0.00|0.00|0.00|0.00|BTU|E||||0.00|01/12/2017|0.00|0.00|0.00|0.00|0.00|0.00|0.00||0.00|0.00||0.00|0.00|0.00|0.00|0.00
S00050270523|RCS_LED_P|008_TCP_20FLOOD_LED|8w TCP LED Dimmable R20 Flood|4|44.60|RCS-E|44.60||0.00|0.00|657822.00||0.00|0.00||0.00|||0.00||0.00||||0.00||657822.00|0.00|0.00|0.00|0.00|BTU|E||||0.00|01/18/2017|0.00|0.00|0.00|0.00|0.00|0.00|0.00||0.00|0.00||0.00|0.00|0.00|0.00|0.00
S00050271979|RCS_LED_P|008_TCP_20FLOOD_LED|8w TCP LED Dimmable R20 Flood|12|133.80|RCS-E|133.80||0.00|0.00|2450417.00||0.00|0.00||0.00|||0.00||0.00||||0.00||2450417.00|0.00|0.00|0.00|0.00|BTU|E||||0.00|01/05/2017|0.00|0.00|0.00|0.00|0.00|0.00|0.00||0.00|0.00||0.00|0.00|0.00|0.00|0.00
S00050275365|RCS_LED_P|008_TCP_20FLOOD_LED|8w TCP LED Dimmable R20 Flood|5|55.75|RCS-E|55.75||0.00|0.00|766818.00||0.00|0.00||0.00|||0.00||0.00||||0.00||766818.00|0.00|0.00|0.00|0.00|BTU|E||||0.00|01/11/2017|0.00|0.00|0.00|0.00|0.00|0.00|0.00||0.00|0.00||0.00|0.00|0.00|0.00|0.00
S00050282172|RCS_LED_P|008_TCP_20FLOOD_LED|8w TCP LED Dimmable R20 Flood|1|11.15|RCS-E|11.15||0.00|0.00|194412.00||0.00|0.00||0.00|||0.00||0.00||||0.00||194412.00|0.00|0.00|0.00|0.00|BTU|E||||0.00|01/23/2017|0.00|0.00|0.00|0.00|0.00|0.00|0.00||0.00|0.00||0.00|0.00|0.00|0.00|0.00
S00050257757|RCS_LAMP_P|009_TCP_GLOBE|9W TCP Globe|1|7.15|RCS-E|7.15||0.00|0.00|194955.00||0.00|0.00||0.00|||0.00||0.00||||0.00||194955.00|0.00|0.00|0.00|0.00|BTU|E||||0.00|01/17/2017|0.00|0.00|0.00|0.00|0.00|0.00|0.00||0.00|0.00||0.00|0.00|0.00|0.00|0.00
S00050283491|RCS_LAMP_P|009_TCP_GLOBE|9W TCP Globe|3|21.45|RCS-E|21.45||0.00|0.00|572021.00||0.00|0.00||0.00|||0.00||0.00||||0.00||572021.00|0.00|0.00|0.00|0.00|BTU|E||||0.00|01/23/2017|0.00|0.00|0.00|0.00|0.00|0.00|0.00||0.00|0.00||0.00|0.00|0.00|0.00|0.00
S00050286544|RCS_LED_P|009_TCP_A_LED_2010.101|9W TCP LED|12|84.00|RCS-E|84.00||0.00|0.00|2235513.00||0.00|0.00||0.00|||0.00||0.00||||0.00||2235513.00|0.00|0.00|0.00|0.00|BTU|E||||0.00|01/29/2017|0.00|0.00|0.00|0.00|0.00|0.00|0.00||0.00|0.00||0.00|0.00|0.00|0.00|0.00
S00002001349|HES_PSTRIP_PB|TrickleStarPowerStrip|Adv 6 outlet Smart Power Strip|1|20.84|RCS-E|20.84||0.00|0.00|269548.00||0.00|0.00||0.00|||0.00||0.00||||0.00||269548.00|0.00|0.00|0.00|0.00|BTU|E||||0.00|01/29/2017|0.00|0.00|0.00|0.00|0.00|0.00|0.00||0.00|0.00||0.00|0.00|0.00|0.00|0.00
S00002003791|HES_PSTRIP_PB|TrickleStarPowerStrip|Adv 6 outlet Smart Power Strip|1|20.84|RCS-E|20.84||0.00|0.00|269548.00||0.00|0.00||0.00|||0.00||0.00||||0.00||269548.00|0.00|0.00|0.00|0.00|BTU|E||||0.00|12/27/2016|0.00|0.00|0.00|0.00|0.00|0.00|0.00||0.00|0.00||0.00|0.00|0.00|0.00|0.00
S00002075565|HES_PSTRIP_PB|TrickleStarPowerStrip|Adv 6 outlet Smart Power Strip|1|20.84|RCS-E|20.84||0.00|0.00|269548.00||0.00|0.00||0.00|||0.00||0.00||||0.00||269548.00|0.00|0.00|0.00|0.00|BTU|E||||0.00|01/24/2017|0.00|0.00|0.00|0.00|0.00|0.00|0.00||0.00|0.00||0.00|0.00|0.00|0.00|0.00
S00002139688|HES_PSTRIP_PB|TrickleStarPowerStrip|Adv 6 outlet Smart Power Strip|1|20.84|RCS-E|20.84||0.00|0.00|269548.00||0.00|0.00||0.00|||0.00||0.00||||0.00||269548.00|0.00|0.00|0.00|0.00|BTU|E||||0.00|01/11/2017|0.00|0.00|0.00|0.00|0.00|0.00|0.00||0.00|0.00||0.00|0.00|0.00|0.00|0.00
S00002143035|HES_PSTRIP_PB|TrickleStarPowerStrip|Adv 6 outlet Smart Power Strip|1|20.84|RCS-E|20.84||0.00|0.00|269548.00||0.00|0.00||0.00|||0.00||0.00||||0.00||269548.00|0.00|0.00|0.00|0.00|BTU|E||||0.00|01/06/2017|0.00|0.00|0.00|0.00|0.00|0.00|0.00||0.00|0.00||0.00|0.00|0.00|0.00|0.00
S00002294110|HES_PSTRIP_PB|TrickleStarPowerStrip|Adv 6 outlet Smart Power Strip|1|20.84|RCS-E|20.84||0.00|0.00|269548.00||0.00|0.00||0.00|||0.00||0.00||||0.00||269548.00|0.00|0.00|0.00|0.00|BTU|E||||0.00|01/24/2017|0.00|0.00|0.00|0.00|0.00|0.00|0.00||0.00|0.00||0.00|0.00|0.00|0.00|0.00
S00002303057|HES_PSTRIP_PB|TrickleStarPowerStrip|Adv 6 outlet Smart Power Strip|1|20.84|RCS-E|20.84||0.00|0.00|269548.00||0.00|0.00||0.00|||0.00||0.00||||0.00||269548.00|0.00|0.00|0.00|0.00|BTU|E||||0.00|01/05/2017|0.00|0.00|0.00|0.00|0.00|0.00|0.00||0.00|0.00||0.00|0.00|0.00|0.00|0.00
S00050252937|HES_PSTRIP_PB|TrickleStarPowerStrip|Adv 6 outlet Smart Power Strip|1|20.84|RCS-E|20.84||0.00|0.00|269548.00||0.00|0.00||0.00|||0.00||0.00||||0.00||269548.00|0.00|0.00|0.00|0.00|BTU|E||||0.00|12/27/2016|0.00|0.00|0.00|0.00|0.00|0.00|0.00||0.00|0.00||0.00|0.00|0.00|0.00|0.00
S00050257757|HES_PSTRIP_PB|TrickleStarPowerStrip|Adv 6 outlet Smart Power Strip|1|20.84|RCS-E|20.84||0.00|0.00|269548.00||0.00|0.00||0.00|||0.00||0.00||||0.00||269548.00|0.00|0.00|0.00|0.00|BTU|E||||0.00|01/17/2017|0.00|0.00|0.00|0.00|0.00|0.00|0.00||0.00|0.00||0.00|0.00|0.00|0.00|0.00
S00050261778|HES_PSTRIP_PB|TrickleStarPowerStrip|Adv 6 outlet Smart Power Strip|1|20.84|RCS-E|20.84||0.00|0.00|269548.00||0.00|0.00||0.00|||0.00||0.00||||0.00||269548.00|0.00|0.00|0.00|0.00|BTU|E||||0.00|12/23/2016|0.00|0.00|0.00|0.00|0.00|0.00|0.00||0.00|0.00||0.00|0.00|0.00|0.00|0.00
S00050265191|HES_PSTRIP_PB|TrickleStarPowerStrip|Adv 6 outlet Smart Power Strip|1|20.84|RCS-E|20.84||0.00|0.00|269548.00||0.00|0.00||0.00|||0.00||0.00||||0.00||269548.00|0.00|0.00|0.00|0.00|BTU|E||||0.00|01/15/2017|0.00|0.00|0.00|0.00|0.00|0.00|0.00||0.00|0.00||0.00|0.00|0.00|0.00|0.00
S00050265715|HES_PSTRIP_PB|TrickleStarPowerStrip|Adv 6 outlet Smart Power Strip|1|20.84|RCS-E|20.84||0.00|0.00|269548.00||0.00|0.00||0.00|||0.00||0.00||||0.00||269548.00|0.00|0.00|0.00|0.00|BTU|E||||0.00|01/04/2017|0.00|0.00|0.00|0.00|0.00|0.00|0.00||0.00|0.00||0.00|0.00|0.00|0.00|0.00
S00050265913|HES_PSTRIP_PB|TrickleStarPowerStrip|Adv 6 outlet Smart Power Strip|1|20.84|RCS-E|20.84||0.00|0.00|269548.00||0.00|0.00||0.00|||0.00||0.00||||0.00||269548.00|0.00|0.00|0.00|0.00|BTU|E||||0.00|01/10/2017|0.00|0.00|0.00|0.00|0.00|0.00|0.00||0.00|0.00||0.00|0.00|0.00|0.00|0.00
S00050266541|HES_PSTRIP_PB|TrickleStarPowerStrip|Adv 6 outlet Smart Power Strip|1|20.84|RCS-E|20.84||0.00|0.00|269548.00||0.00|0.00||0.00|||0.00||0.00||||0.00||269548.00|0.00|0.00|0.00|0.00|BTU|E||||0.00|01/03/2017|0.00|0.00|0.00|0.00|0.00|0.00|0.00||0.00|0.00||0.00|0.00|0.00|0.00|0.00
S00050266754|HES_PSTRIP_PB|TrickleStarPowerStrip|Adv 6 outlet Smart Power Strip|1|20.84|RCS-E|20.84||0.00|0.00|269548.00||0.00|0.00||0.00|||0.00||0.00||||0.00||269548.00|0.00|0.00|0.00|0.00|BTU|E||||0.00|01/17/2017|0.00|0.00|0.00|0.00|0.00|0.00|0.00||0.00|0.00||0.00|0.00|0.00|0.00|0.00
S00050266814|HES_PSTRIP_PB|TrickleStarPowerStrip|Adv 6 outlet Smart Power Strip|1|20.84|RCS-E|20.84||0.00|0.00|269548.00||0.00|0.00||0.00|||0.00||0.00||||0.00||269548.00|0.00|0.00|0.00|0.00|BTU|E||||0.00|01/14/2017|0.00|0.00|0.00|0.00|0.00|0.00|0.00||0.00|0.00||0.00|0.00|0.00|0.00|0.00
S00050267086|HES_PSTRIP_PB|TrickleStarPowerStrip|Adv 6 outlet Smart Power Strip|1|20.84|RCS-E|20.84||0.00|0.00|269548.00||0.00|0.00||0.00|||0.00||0.00||||0.00||269548.00|0.00|0.00|0.00|0.00|BTU|E||||0.00|01/03/2017|0.00|0.00|0.00|0.00|0.00|0.00|0.00||0.00|0.00||0.00|0.00|0.00|0.00|0.00
S00050267824|HES_PSTRIP_PB|TrickleStarPowerStrip|Adv 6 outlet Smart Power Strip|1|20.84|RCS-E|20.84||0.00|0.00|269548.00||0.00|0.00||0.00|||0.00||0.00||||0.00||269548.00|0.00|0.00|0.00|0.00|BTU|E||||0.00|01/12/2017|0.00|0.00|0.00|0.00|0.00|0.00|0.00||0.00|0.00||0.00|0.00|0.00|0.00|0.00
S00050267854|HES_PSTRIP_PB|TrickleStarPowerStrip|Adv 6 outlet Smart Power Strip|2|41.68|RCS-E|41.68||0.00|0.00|539096.00||0.00|0.00||0.00|||0.00||0.00||||0.00||539096.00|0.00|0.00|0.00|0.00|BTU|E||||0.00|01/05/2017|0.00|0.00|0.00|0.00|0.00|0.00|0.00||0.00|0.00||0.00|0.00|0.00|0.00|0.00
S00050268081|HES_PSTRIP_PB|TrickleStarPowerStrip|Adv 6 outlet Smart Power Strip|1|20.84|RCS-E|20.84||0.00|0.00|269548.00||0.00|0.00||0.00|||0.00||0.00||||0.00||269548.00|0.00|0.00|0.00|0.00|BTU|E||||0.00|01/11/2017|0.00|0.00|0.00|0.00|0.00|0.00|0.00||0.00|0.00||0.00|0.00|0.00|0.00|0.00
S00050269208|HES_PSTRIP_PB|TrickleStarPowerStrip|Adv 6 outlet Smart Power Strip|1|20.84|RCS-E|20.84||0.00|0.00|269548.00||0.00|0.00||0.00|||0.00||0.00||||0.00||269548.00|0.00|0.00|0.00|0.00|BTU|E||||0.00|01/11/2017|0.00|0.00|0.00|0.00|0.00|0.00|0.00||0.00|0.00||0.00|0.00|0.00|0.00|0.00
S00050269262|HES_PSTRIP_PB|TrickleStarPowerStrip|Adv 6 outlet Smart Power Strip|1|20.84|RCS-E|20.84||0.00|0.00|269548.00||0.00|0.00||0.00|||0.00||0.00||||0.00||269548.00|0.00|0.00|0.00|0.00|BTU|E||||0.00|01/12/2017|0.00|0.00|0.00|0.00|0.00|0.00|0.00||0.00|0.00||0.00|0.00|0.00|0.00|0.00
S00050269381|HES_PSTRIP_PB|TrickleStarPowerStrip|Adv 6 outlet Smart Power Strip|1|20.84|RCS-E|20.84||0.00|0.00|269548.00||0.00|0.00||0.00|||0.00||0.00||||0.00||269548.00|0.00|0.00|0.00|0.00|BTU|E||||0.00|01/19/2017|0.00|0.00|0.00|0.00|0.00|0.00|0.00||0.00|0.00||0.00|0.00|0.00|0.00|0.00
S00050269500|HES_PSTRIP_PB|TrickleStarPowerStrip|Adv 6 outlet Smart Power Strip|1|20.84|RCS-E|20.84||0.00|0.00|269548.00||0.00|0.00||0.00|||0.00||0.00||||0.00||269548.00|0.00|0.00|0.00|0.00|BTU|E||||0.00|01/12/2017|0.00|0.00|0.00|0.00|0.00|0.00|0.00||0.00|0.00||0.00|0.00|0.00|0.00|0.00
S00050269523|HES_PSTRIP_PB|TrickleStarPowerStrip|Adv 6 outlet Smart Power Strip|1|20.84|RCS-E|20.84||0.00|0.00|269548.00||0.00|0.00||0.00|||0.00||0.00||||0.00||269548.00|0.00|0.00|0.00|0.00|BTU|E||||0.00|01/13/2017|0.00|0.00|0.00|0.00|0.00|0.00|0.00||0.00|0.00||0.00|0.00|0.00|0.00|0.00
S00050269622|HES_PSTRIP_PB|TrickleStarPowerStrip|Adv 6 outlet Smart Power Strip|1|20.84|RCS-E|20.84||0.00|0.00|269548.00||0.00|0.00||0.00|||0.00||0.00||||0.00||269548.00|0.00|0.00|0.00|0.00|BTU|E||||0.00|01/17/2017|0.00|0.00|0.00|0.00|0.00|0.00|0.00||0.00|0.00||0.00|0.00|0.00|0.00|0.00
S00050270064|HES_PSTRIP_PB|TrickleStarPowerStrip|Adv 6 outlet Smart Power Strip|1|20.84|RCS-E|20.84||0.00|0.00|269548.00||0.00|0.00||0.00|||0.00||0.00||||0.00||269548.00|0.00|0.00|0.00|0.00|BTU|E||||0.00|01/14/2017|0.00|0.00|0.00|0.00|0.00|0.00|0.00||0.00|0.00||0.00|0.00|0.00|0.00|0.00
S00050270523|HES_PSTRIP_PB|TrickleStarPowerStrip|Adv 6 outlet Smart Power Strip|1|20.84|RCS-E|20.84||0.00|0.00|269548.00||0.00|0.00||0.00|||0.00||0.00||||0.00||269548.00|0.00|0.00|0.00|0.00|BTU|E||||0.00|01/18/2017|0.00|0.00|0.00|0.00|0.00|0.00|0.00||0.00|0.00||0.00|0.00|0.00|0.00|0.00
S00050270844|HES_PSTRIP_PB|TrickleStarPowerStrip|Adv 6 outlet Smart Power Strip|1|20.84|RCS-E|20.84||0.00|0.00|269548.00||0.00|0.00||0.00|||0.00||0.00||||0.00||269548.00|0.00|0.00|0.00|0.00|BTU|E||||0.00|01/19/2017|0.00|0.00|0.00|0.00|0.00|0.00|0.00||0.00|0.00||0.00|0.00|0.00|0.00|0.00
S00050270908|HES_PSTRIP_PB|TrickleStarPowerStrip|Adv 6 outlet Smart Power Strip|1|20.84|RCS-E|20.84||0.00|0.00|269548.00||0.00|0.00||0.00|||0.00||0.00||||0.00||269548.00|0.00|0.00|0.00|0.00|BTU|E||||0.00|01/14/2017|0.00|0.00|0.00|0.00|0.00|0.00|0.00||0.00|0.00||0.00|0.00|0.00|0.00|0.00
S00050270966|HES_PSTRIP_PB|TrickleStarPowerStrip|Adv 6 outlet Smart Power Strip|1|20.84|RCS-E|20.84||0.00|0.00|269548.00||0.00|0.00||0.00|||0.00||0.00||||0.00||269548.00|0.00|0.00|0.00|0.00|BTU|E||||0.00|01/20/2017|0.00|0.00|0.00|0.00|0.00|0.00|0.00||0.00|0.00||0.00|0.00|0.00|0.00|0.00
S00050271049|HES_PSTRIP_PB|TrickleStarPowerStrip|Adv 6 outlet Smart Power Strip|1|20.84|RCS-E|20.84||0.00|0.00|269548.00||0.00|0.00||0.00|||0.00||0.00||||0.00||269548.00|0.00|0.00|0.00|0.00|BTU|E||||0.00|01/24/2017|0.00|0.00|0.00|0.00|0.00|0.00|0.00||0.00|0.00||0.00|0.00|0.00|0.00|0.00
S00050271849|HES_PSTRIP_PB|TrickleStarPowerStrip|Adv 6 outlet Smart Power Strip|1|20.84|RCS-E|20.84||0.00|0.00|269548.00||0.00|0.00||0.00|||0.00||0.00||||0.00||269548.00|0.00|0.00|0.00|0.00|BTU|E||||0.00|01/24/2017|0.00|0.00|0.00|0.00|0.00|0.00|0.00||0.00|0.00||0.00|0.00|0.00|0.00|0.00
S00050271943|HES_PSTRIP_PB|TrickleStarPowerStrip|Adv 6 outlet Smart Power Strip|1|20.84|RCS-E|20.84||0.00|0.00|269548.00||0.00|0.00||0.00|||0.00||0.00||||0.00||269548.00|0.00|0.00|0.00|0.00|BTU|E||||0.00|01/25/2017|0.00|0.00|0.00|0.00|0.00|0.00|0.00||0.00|0.00||0.00|0.00|0.00|0.00|0.00
S00050273186|HES_PSTRIP_PB|TrickleStarPowerStrip|Adv 6 outlet Smart Power Strip|1|20.84|RCS-E|20.84||0.00|0.00|269548.00||0.00|0.00||0.00|||0.00||0.00||||0.00||269548.00|0.00|0.00|0.00|0.00|BTU|E||||0.00|01/25/2017|0.00|0.00|0.00|0.00|0.00|0.00|0.00||0.00|0.00||0.00|0.00|0.00|0.00|0.00
S00050273235|HES_PSTRIP_PB|TrickleStarPowerStrip|Adv 6 outlet Smart Power Strip|1|20.84|RCS-E|20.84||0.00|0.00|269548.00||0.00|0.00||0.00|||0.00||0.00||||0.00||269548.00|0.00|0.00|0.00|0.00|BTU|E||||0.00|01/25/2017|0.00|0.00|0.00|0.00|0.00|0.00|0.00||0.00|0.00||0.00|0.00|0.00|0.00|0.00
S00050275365|HES_PSTRIP_PB|TrickleStarPowerStrip|Adv 6 outlet Smart Power Strip|1|20.84|RCS-E|20.84||0.00|0.00|269548.00||0.00|0.00||0.00|||0.00||0.00||||0.00||269548.00|0.00|0.00|0.00|0.00|BTU|E||||0.00|01/11/2017|0.00|0.00|0.00|0.00|0.00|0.00|0.00||0.00|0.00||0.00|0.00|0.00|0.00|0.00
S00050275442|HES_PSTRIP_PB|TrickleStarPowerStrip|Adv 6 outlet Smart Power Strip|1|20.84|RCS-E|20.84||0.00|0.00|269548.00||0.00|0.00||0.00|||0.00||0.00||||0.00||269548.00|0.00|0.00|0.00|0.00|BTU|E||||0.00|12/29/2016|0.00|0.00|0.00|0.00|0.00|0.00|0.00||0.00|0.00||0.00|0.00|0.00|0.00|0.00
S00050275532|HES_PSTRIP_PB|TrickleStarPowerStrip|Adv 6 outlet Smart Power Strip|1|20.84|RCS-E|20.84||0.00|0.00|269548.00||0.00|0.00||0.00|||0.00||0.00||||0.00||269548.00|0.00|0.00|0.00|0.00|BTU|E||||0.00|01/13/2017|0.00|0.00|0.00|0.00|0.00|0.00|0.00||0.00|0.00||0.00|0.00|0.00|0.00|0.00
S00050282172|HES_PSTRIP_PB|TrickleStarPowerStrip|Adv 6 outlet Smart Power Strip|1|20.84|RCS-E|20.84||0.00|0.00|269548.00||0.00|0.00||0.00|||0.00||0.00||||0.00||269548.00|0.00|0.00|0.00|0.00|BTU|E||||0.00|01/23/2017|0.00|0.00|0.00|0.00|0.00|0.00|0.00||0.00|0.00||0.00|0.00|0.00|0.00|0.00
S00050283491|HES_PSTRIP_PB|TrickleStarPowerStrip|Adv 6 outlet Smart Power Strip|1|20.84|RCS-E|20.84||0.00|0.00|269548.00||0.00|0.00||0.00|||0.00||0.00||||0.00||269548.00|0.00|0.00|0.00|0.00|BTU|E||||0.00|01/23/2017|0.00|0.00|0.00|0.00|0.00|0.00|0.00||0.00|0.00||0.00|0.00|0.00|0.00|0.00
S00050283664|HES_PSTRIP_PB|TrickleStarPowerStrip|Adv 6 outlet Smart Power Strip|1|20.84|RCS-E|20.84||0.00|0.00|269548.00||0.00|0.00||0.00|||0.00||0.00||||0.00||269548.00|0.00|0.00|0.00|0.00|BTU|E||||0.00|01/18/2017|0.00|0.00|0.00|0.00|0.00|0.00|0.00||0.00|0.00||0.00|0.00|0.00|0.00|0.00
S00050286544|HES_PSTRIP_PB|TrickleStarPowerStrip|Adv 6 outlet Smart Power Strip|1|20.84|RCS-E|20.84||0.00|0.00|269548.00||0.00|0.00||0.00|||0.00||0.00||||0.00||269548.00|0.00|0.00|0.00|0.00|BTU|E||||0.00|01/29/2017|0.00|0.00|0.00|0.00|0.00|0.00|0.00||0.00|0.00||0.00|0.00|0.00|0.00|0.00
S00002001349|FEE_PIGGYBACK_P|PIGGYBACK_FEE|Piggyback Fee|1|15.00|RCS-E|15.00||0.00|0.00|0.00||0.00|0.00||0.00|||0.00||0.00||||0.00||0.00|0.00|0.00|0.00|0.00|BTU|||||0.00|01/31/2017|0.00|0.00|0.00|0.00|0.00|0.00|0.00||0.00|0.00||0.00|0.00|0.00|0.00|0.00
S00002003791|FEE_PIGGYBACK_P|PIGGYBACK_FEE|Piggyback Fee|1|15.00|RCS-E|15.00||0.00|0.00|0.00||0.00|0.00||0.00|||0.00||0.00||||0.00||0.00|0.00|0.00|0.00|0.00|BTU|||||0.00|01/31/2017|0.00|0.00|0.00|0.00|0.00|0.00|0.00||0.00|0.00||0.00|0.00|0.00|0.00|0.00
S00002026391|FEE_PIGGYBACK_P|PIGGYBACK_FEE|Piggyback Fee|1|15.00|RCS-E|15.00||0.00|0.00|0.00||0.00|0.00||0.00|||0.00||0.00||||0.00||0.00|0.00|0.00|0.00|0.00|BTU|||||0.00|01/31/2017|0.00|0.00|0.00|0.00|0.00|0.00|0.00||0.00|0.00||0.00|0.00|0.00|0.00|0.00
S00002075565|FEE_PIGGYBACK_P|PIGGYBACK_FEE|Piggyback Fee|1|15.00|RCS-E|15.00||0.00|0.00|0.00||0.00|0.00||0.00|||0.00||0.00||||0.00||0.00|0.00|0.00|0.00|0.00|BTU|||||0.00|01/31/2017|0.00|0.00|0.00|0.00|0.00|0.00|0.00||0.00|0.00||0.00|0.00|0.00|0.00|0.00
S00002139688|FEE_PIGGYBACK_P|PIGGYBACK_FEE|Piggyback Fee|1|15.00|RCS-E|15.00||0.00|0.00|0.00||0.00|0.00||0.00|||0.00||0.00||||0.00||0.00|0.00|0.00|0.00|0.00|BTU|||||0.00|01/31/2017|0.00|0.00|0.00|0.00|0.00|0.00|0.00||0.00|0.00||0.00|0.00|0.00|0.00|0.00
S00002143035|FEE_PIGGYBACK_P|PIGGYBACK_FEE|Piggyback Fee|1|15.00|RCS-E|15.00||0.00|0.00|0.00||0.00|0.00||0.00|||0.00||0.00||||0.00||0.00|0.00|0.00|0.00|0.00|BTU|||||0.00|01/31/2017|0.00|0.00|0.00|0.00|0.00|0.00|0.00||0.00|0.00||0.00|0.00|0.00|0.00|0.00
S00002268230|FEE_PIGGYBACK_P|PIGGYBACK_FEE|Piggyback Fee|1|15.00|RCS-E|15.00||0.00|0.00|0.00||0.00|0.00||0.00|||0.00||0.00||||0.00||0.00|0.00|0.00|0.00|0.00|BTU|||||0.00|01/31/2017|0.00|0.00|0.00|0.00|0.00|0.00|0.00||0.00|0.00||0.00|0.00|0.00|0.00|0.00
S00002294110|FEE_PIGGYBACK_P|PIGGYBACK_FEE|Piggyback Fee|1|15.00|RCS-E|15.00||0.00|0.00|0.00||0.00|0.00||0.00|||0.00||0.00||||0.00||0.00|0.00|0.00|0.00|0.00|BTU|||||0.00|01/31/2017|0.00|0.00|0.00|0.00|0.00|0.00|0.00||0.00|0.00||0.00|0.00|0.00|0.00|0.00
S00002303057|FEE_PIGGYBACK_P|PIGGYBACK_FEE|Piggyback Fee|1|15.00|RCS-E|15.00||0.00|0.00|0.00||0.00|0.00||0.00|||0.00||0.00||||0.00||0.00|0.00|0.00|0.00|0.00|BTU|||||0.00|01/31/2017|0.00|0.00|0.00|0.00|0.00|0.00|0.00||0.00|0.00||0.00|0.00|0.00|0.00|0.00
S00050252937|FEE_PIGGYBACK_P|PIGGYBACK_FEE|Piggyback Fee|1|15.00|RCS-E|15.00||0.00|0.00|0.00||0.00|0.00||0.00|||0.00||0.00||||0.00||0.00|0.00|0.00|0.00|0.00|BTU|||||0.00|01/31/2017|0.00|0.00|0.00|0.00|0.00|0.00|0.00||0.00|0.00||0.00|0.00|0.00|0.00|0.00
S00050254041|FEE_PIGGYBACK_P|PIGGYBACK_FEE|Piggyback Fee|1|15.00|RCS-E|15.00||0.00|0.00|0.00||0.00|0.00||0.00|||0.00||0.00||||0.00||0.00|0.00|0.00|0.00|0.00|BTU|||||0.00|01/31/2017|0.00|0.00|0.00|0.00|0.00|0.00|0.00||0.00|0.00||0.00|0.00|0.00|0.00|0.00
S00050257757|FEE_PIGGYBACK_P|PIGGYBACK_FEE|Piggyback Fee|1|15.00|RCS-E|15.00||0.00|0.00|0.00||0.00|0.00||0.00|||0.00||0.00||||0.00||0.00|0.00|0.00|0.00|0.00|BTU|||||0.00|01/31/2017|0.00|0.00|0.00|0.00|0.00|0.00|0.00||0.00|0.00||0.00|0.00|0.00|0.00|0.00
S00050261778|FEE_PIGGYBACK_P|PIGGYBACK_FEE|Piggyback Fee|1|15.00|RCS-E|15.00||0.00|0.00|0.00||0.00|0.00||0.00|||0.00||0.00||||0.00||0.00|0.00|0.00|0.00|0.00|BTU|||||0.00|01/31/2017|0.00|0.00|0.00|0.00|0.00|0.00|0.00||0.00|0.00||0.00|0.00|0.00|0.00|0.00
S00050261939|FEE_PIGGYBACK_P|PIGGYBACK_FEE|Piggyback Fee|1|15.00|RCS-E|15.00||0.00|0.00|0.00||0.00|0.00||0.00|||0.00||0.00||||0.00||0.00|0.00|0.00|0.00|0.00|BTU|||||0.00|01/31/2017|0.00|0.00|0.00|0.00|0.00|0.00|0.00||0.00|0.00||0.00|0.00|0.00|0.00|0.00
S00050265191|FEE_PIGGYBACK_P|PIGGYBACK_FEE|Piggyback Fee|1|15.00|RCS-E|15.00||0.00|0.00|0.00||0.00|0.00||0.00|||0.00||0.00||||0.00||0.00|0.00|0.00|0.00|0.00|BTU|||||0.00|01/31/2017|0.00|0.00|0.00|0.00|0.00|0.00|0.00||0.00|0.00||0.00|0.00|0.00|0.00|0.00
S00050265715|FEE_PIGGYBACK_P|PIGGYBACK_FEE|Piggyback Fee|1|15.00|RCS-E|15.00||0.00|0.00|0.00||0.00|0.00||0.00|||0.00||0.00||||0.00||0.00|0.00|0.00|0.00|0.00|BTU|||||0.00|01/31/2017|0.00|0.00|0.00|0.00|0.00|0.00|0.00||0.00|0.00||0.00|0.00|0.00|0.00|0.00
S00050265913|FEE_PIGGYBACK_P|PIGGYBACK_FEE|Piggyback Fee|1|15.00|RCS-E|15.00||0.00|0.00|0.00||0.00|0.00||0.00|||0.00||0.00||||0.00||0.00|0.00|0.00|0.00|0.00|BTU|||||0.00|01/31/2017|0.00|0.00|0.00|0.00|0.00|0.00|0.00||0.00|0.00||0.00|0.00|0.00|0.00|0.00
S00050266541|FEE_PIGGYBACK_P|PIGGYBACK_FEE|Piggyback Fee|1|15.00|RCS-E|15.00||0.00|0.00|0.00||0.00|0.00||0.00|||0.00||0.00||||0.00||0.00|0.00|0.00|0.00|0.00|BTU|||||0.00|01/31/2017|0.00|0.00|0.00|0.00|0.00|0.00|0.00||0.00|0.00||0.00|0.00|0.00|0.00|0.00
S00050266622|FEE_PIGGYBACK_P|PIGGYBACK_FEE|Piggyback Fee|1|15.00|RCS-E|15.00||0.00|0.00|0.00||0.00|0.00||0.00|||0.00||0.00||||0.00||0.00|0.00|0.00|0.00|0.00|BTU|||||0.00|01/31/2017|0.00|0.00|0.00|0.00|0.00|0.00|0.00||0.00|0.00||0.00|0.00|0.00|0.00|0.00
S00050266754|FEE_PIGGYBACK_P|PIGGYBACK_FEE|Piggyback Fee|1|15.00|RCS-E|15.00||0.00|0.00|0.00||0.00|0.00||0.00|||0.00||0.00||||0.00||0.00|0.00|0.00|0.00|0.00|BTU|||||0.00|01/31/2017|0.00|0.00|0.00|0.00|0.00|0.00|0.00||0.00|0.00||0.00|0.00|0.00|0.00|0.00
S00050266814|FEE_PIGGYBACK_P|PIGGYBACK_FEE|Piggyback Fee|1|15.00|RCS-E|15.00||0.00|0.00|0.00||0.00|0.00||0.00|||0.00||0.00||||0.00||0.00|0.00|0.00|0.00|0.00|BTU|||||0.00|01/31/2017|0.00|0.00|0.00|0.00|0.00|0.00|0.00||0.00|0.00||0.00|0.00|0.00|0.00|0.00
S00050267086|FEE_PIGGYBACK_P|PIGGYBACK_FEE|Piggyback Fee|1|15.00|RCS-E|15.00||0.00|0.00|0.00||0.00|0.00||0.00|||0.00||0.00||||0.00||0.00|0.00|0.00|0.00|0.00|BTU|||||0.00|01/31/2017|0.00|0.00|0.00|0.00|0.00|0.00|0.00||0.00|0.00||0.00|0.00|0.00|0.00|0.00
S00050267824|FEE_PIGGYBACK_P|PIGGYBACK_FEE|Piggyback Fee|1|15.00|RCS-E|15.00||0.00|0.00|0.00||0.00|0.00||0.00|||0.00||0.00||||0.00||0.00|0.00|0.00|0.00|0.00|BTU|||||0.00|01/31/2017|0.00|0.00|0.00|0.00|0.00|0.00|0.00||0.00|0.00||0.00|0.00|0.00|0.00|0.00
S00050267854|FEE_PIGGYBACK_P|PIGGYBACK_FEE|Piggyback Fee|1|15.00|RCS-E|15.00||0.00|0.00|0.00||0.00|0.00||0.00|||0.00||0.00||||0.00||0.00|0.00|0.00|0.00|0.00|BTU|||||0.00|01/31/2017|0.00|0.00|0.00|0.00|0.00|0.00|0.00||0.00|0.00||0.00|0.00|0.00|0.00|0.00
S00050268081|FEE_PIGGYBACK_P|PIGGYBACK_FEE|Piggyback Fee|1|15.00|RCS-E|15.00||0.00|0.00|0.00||0.00|0.00||0.00|||0.00||0.00||||0.00||0.00|0.00|0.00|0.00|0.00|BTU|||||0.00|01/31/2017|0.00|0.00|0.00|0.00|0.00|0.00|0.00||0.00|0.00||0.00|0.00|0.00|0.00|0.00
S00050269208|FEE_PIGGYBACK_P|PIGGYBACK_FEE|Piggyback Fee|1|15.00|RCS-E|15.00||0.00|0.00|0.00||0.00|0.00||0.00|||0.00||0.00||||0.00||0.00|0.00|0.00|0.00|0.00|BTU|||||0.00|01/31/2017|0.00|0.00|0.00|0.00|0.00|0.00|0.00||0.00|0.00||0.00|0.00|0.00|0.00|0.00
S00050269262|FEE_PIGGYBACK_P|PIGGYBACK_FEE|Piggyback Fee|1|15.00|RCS-E|15.00||0.00|0.00|0.00||0.00|0.00||0.00|||0.00||0.00||||0.00||0.00|0.00|0.00|0.00|0.00|BTU|||||0.00|01/31/2017|0.00|0.00|0.00|0.00|0.00|0.00|0.00||0.00|0.00||0.00|0.00|0.00|0.00|0.00
S00050269381|FEE_PIGGYBACK_P|PIGGYBACK_FEE|Piggyback Fee|1|15.00|RCS-E|15.00||0.00|0.00|0.00||0.00|0.00||0.00|||0.00||0.00||||0.00||0.00|0.00|0.00|0.00|0.00|BTU|||||0.00|01/31/2017|0.00|0.00|0.00|0.00|0.00|0.00|0.00||0.00|0.00||0.00|0.00|0.00|0.00|0.00
S00050269500|FEE_PIGGYBACK_P|PIGGYBACK_FEE|Piggyback Fee|1|15.00|RCS-E|15.00||0.00|0.00|0.00||0.00|0.00||0.00|||0.00||0.00||||0.00||0.00|0.00|0.00|0.00|0.00|BTU|||||0.00|01/31/2017|0.00|0.00|0.00|0.00|0.00|0.00|0.00||0.00|0.00||0.00|0.00|0.00|0.00|0.00
S00050269523|FEE_PIGGYBACK_P|PIGGYBACK_FEE|Piggyback Fee|1|15.00|RCS-E|15.00||0.00|0.00|0.00||0.00|0.00||0.00|||0.00||0.00||||0.00||0.00|0.00|0.00|0.00|0.00|BTU|||||0.00|01/31/2017|0.00|0.00|0.00|0.00|0.00|0.00|0.00||0.00|0.00||0.00|0.00|0.00|0.00|0.00
S00050269622|FEE_PIGGYBACK_P|PIGGYBACK_FEE|Piggyback Fee|1|15.00|RCS-E|15.00||0.00|0.00|0.00||0.00|0.00||0.00|||0.00||0.00||||0.00||0.00|0.00|0.00|0.00|0.00|BTU|||||0.00|01/31/2017|0.00|0.00|0.00|0.00|0.00|0.00|0.00||0.00|0.00||0.00|0.00|0.00|0.00|0.00
S00050270064|FEE_PIGGYBACK_P|PIGGYBACK_FEE|Piggyback Fee|1|15.00|RCS-E|15.00||0.00|0.00|0.00||0.00|0.00||0.00|||0.00||0.00||||0.00||0.00|0.00|0.00|0.00|0.00|BTU|||||0.00|01/31/2017|0.00|0.00|0.00|0.00|0.00|0.00|0.00||0.00|0.00||0.00|0.00|0.00|0.00|0.00
S00050270523|FEE_PIGGYBACK_P|PIGGYBACK_FEE|Piggyback Fee|1|15.00|RCS-E|15.00||0.00|0.00|0.00||0.00|0.00||0.00|||0.00||0.00||||0.00||0.00|0.00|0.00|0.00|0.00|BTU|||||0.00|01/31/2017|0.00|0.00|0.00|0.00|0.00|0.00|0.00||0.00|0.00||0.00|0.00|0.00|0.00|0.00
S00050270808|FEE_PIGGYBACK_P|PIGGYBACK_FEE|Piggyback Fee|1|15.00|RCS-E|15.00||0.00|0.00|0.00||0.00|0.00||0.00|||0.00||0.00||||0.00||0.00|0.00|0.00|0.00|0.00|BTU|||||0.00|01/31/2017|0.00|0.00|0.00|0.00|0.00|0.00|0.00||0.00|0.00||0.00|0.00|0.00|0.00|0.00
S00050270844|FEE_PIGGYBACK_P|PIGGYBACK_FEE|Piggyback Fee|1|15.00|RCS-E|15.00||0.00|0.00|0.00||0.00|0.00||0.00|||0.00||0.00||||0.00||0.00|0.00|0.00|0.00|0.00|BTU|||||0.00|01/31/2017|0.00|0.00|0.00|0.00|0.00|0.00|0.00||0.00|0.00||0.00|0.00|0.00|0.00|0.00
S00050270908|FEE_PIGGYBACK_P|PIGGYBACK_FEE|Piggyback Fee|1|15.00|RCS-E|15.00||0.00|0.00|0.00||0.00|0.00||0.00|||0.00||0.00||||0.00||0.00|0.00|0.00|0.00|0.00|BTU|||||0.00|01/31/2017|0.00|0.00|0.00|0.00|0.00|0.00|0.00||0.00|0.00||0.00|0.00|0.00|0.00|0.00
S00050270966|FEE_PIGGYBACK_P|PIGGYBACK_FEE|Piggyback Fee|1|15.00|RCS-E|15.00||0.00|0.00|0.00||0.00|0.00||0.00|||0.00||0.00||||0.00||0.00|0.00|0.00|0.00|0.00|BTU|||||0.00|01/31/2017|0.00|0.00|0.00|0.00|0.00|0.00|0.00||0.00|0.00||0.00|0.00|0.00|0.00|0.00
S00050271049|FEE_PIGGYBACK_P|PIGGYBACK_FEE|Piggyback Fee|1|15.00|RCS-E|15.00||0.00|0.00|0.00||0.00|0.00||0.00|||0.00||0.00||||0.00||0.00|0.00|0.00|0.00|0.00|BTU|||||0.00|01/31/2017|0.00|0.00|0.00|0.00|0.00|0.00|0.00||0.00|0.00||0.00|0.00|0.00|0.00|0.00
S00050271849|FEE_PIGGYBACK_P|PIGGYBACK_FEE|Piggyback Fee|1|15.00|RCS-E|15.00||0.00|0.00|0.00||0.00|0.00||0.00|||0.00||0.00||||0.00||0.00|0.00|0.00|0.00|0.00|BTU|||||0.00|01/31/2017|0.00|0.00|0.00|0.00|0.00|0.00|0.00||0.00|0.00||0.00|0.00|0.00|0.00|0.00
S00050271943|FEE_PIGGYBACK_P|PIGGYBACK_FEE|Piggyback Fee|1|15.00|RCS-E|15.00||0.00|0.00|0.00||0.00|0.00||0.00|||0.00||0.00||||0.00||0.00|0.00|0.00|0.00|0.00|BTU|||||0.00|01/31/2017|0.00|0.00|0.00|0.00|0.00|0.00|0.00||0.00|0.00||0.00|0.00|0.00|0.00|0.00
S00050271979|FEE_PIGGYBACK_P|PIGGYBACK_FEE|Piggyback Fee|1|15.00|RCS-E|15.00||0.00|0.00|0.00||0.00|0.00||0.00|||0.00||0.00||||0.00||0.00|0.00|0.00|0.00|0.00|BTU|||||0.00|01/31/2017|0.00|0.00|0.00|0.00|0.00|0.00|0.00||0.00|0.00||0.00|0.00|0.00|0.00|0.00
S00050273186|FEE_PIGGYBACK_P|PIGGYBACK_FEE|Piggyback Fee|1|15.00|RCS-E|15.00||0.00|0.00|0.00||0.00|0.00||0.00|||0.00||0.00||||0.00||0.00|0.00|0.00|0.00|0.00|BTU|||||0.00|01/31/2017|0.00|0.00|0.00|0.00|0.00|0.00|0.00||0.00|0.00||0.00|0.00|0.00|0.00|0.00
S00050273235|FEE_PIGGYBACK_P|PIGGYBACK_FEE|Piggyback Fee|1|15.00|RCS-E|15.00||0.00|0.00|0.00||0.00|0.00||0.00|||0.00||0.00||||0.00||0.00|0.00|0.00|0.00|0.00|BTU|||||0.00|01/31/2017|0.00|0.00|0.00|0.00|0.00|0.00|0.00||0.00|0.00||0.00|0.00|0.00|0.00|0.00
S00050273828|FEE_PIGGYBACK_P|PIGGYBACK_FEE|Piggyback Fee|1|15.00|RCS-E|15.00||0.00|0.00|0.00||0.00|0.00||0.00|||0.00||0.00||||0.00||0.00|0.00|0.00|0.00|0.00|BTU|||||0.00|01/31/2017|0.00|0.00|0.00|0.00|0.00|0.00|0.00||0.00|0.00||0.00|0.00|0.00|0.00|0.00
S00050275365|FEE_PIGGYBACK_P|PIGGYBACK_FEE|Piggyback Fee|1|15.00|RCS-E|15.00||0.00|0.00|0.00||0.00|0.00||0.00|||0.00||0.00||||0.00||0.00|0.00|0.00|0.00|0.00|BTU|||||0.00|01/31/2017|0.00|0.00|0.00|0.00|0.00|0.00|0.00||0.00|0.00||0.00|0.00|0.00|0.00|0.00
S00050275442|FEE_PIGGYBACK_P|PIGGYBACK_FEE|Piggyback Fee|1|15.00|RCS-E|15.00||0.00|0.00|0.00||0.00|0.00||0.00|||0.00||0.00||||0.00||0.00|0.00|0.00|0.00|0.00|BTU|||||0.00|01/31/2017|0.00|0.00|0.00|0.00|0.00|0.00|0.00||0.00|0.00||0.00|0.00|0.00|0.00|0.00
S00050275532|FEE_PIGGYBACK_P|PIGGYBACK_FEE|Piggyback Fee|1|15.00|RCS-E|15.00||0.00|0.00|0.00||0.00|0.00||0.00|||0.00||0.00||||0.00||0.00|0.00|0.00|0.00|0.00|BTU|||||0.00|01/31/2017|0.00|0.00|0.00|0.00|0.00|0.00|0.00||0.00|0.00||0.00|0.00|0.00|0.00|0.00
S00050276909|FEE_PIGGYBACK_P|PIGGYBACK_FEE|Piggyback Fee|1|15.00|RCS-E|15.00||0.00|0.00|0.00||0.00|0.00||0.00|||0.00||0.00||||0.00||0.00|0.00|0.00|0.00|0.00|BTU|||||0.00|01/31/2017|0.00|0.00|0.00|0.00|0.00|0.00|0.00||0.00|0.00||0.00|0.00|0.00|0.00|0.00
S00050282172|FEE_PIGGYBACK_P|PIGGYBACK_FEE|Piggyback Fee|1|15.00|RCS-E|15.00||0.00|0.00|0.00||0.00|0.00||0.00|||0.00||0.00||||0.00||0.00|0.00|0.00|0.00|0.00|BTU|||||0.00|01/31/2017|0.00|0.00|0.00|0.00|0.00|0.00|0.00||0.00|0.00||0.00|0.00|0.00|0.00|0.00
S00050283491|FEE_PIGGYBACK_P|PIGGYBACK_FEE|Piggyback Fee|1|15.00|RCS-E|15.00||0.00|0.00|0.00||0.00|0.00||0.00|||0.00||0.00||||0.00||0.00|0.00|0.00|0.00|0.00|BTU|||||0.00|01/31/2017|0.00|0.00|0.00|0.00|0.00|0.00|0.00||0.00|0.00||0.00|0.00|0.00|0.00|0.00
S00050283664|FEE_PIGGYBACK_P|PIGGYBACK_FEE|Piggyback Fee|1|15.00|RCS-E|15.00||0.00|0.00|0.00||0.00|0.00||0.00|||0.00||0.00||||0.00||0.00|0.00|0.00|0.00|0.00|BTU|||||0.00|01/31/2017|0.00|0.00|0.00|0.00|0.00|0.00|0.00||0.00|0.00||0.00|0.00|0.00|0.00|0.00
S00050286544|FEE_PIGGYBACK_P|PIGGYBACK_FEE|Piggyback Fee|1|15.00|RCS-E|15.00||0.00|0.00|0.00||0.00|0.00||0.00|||0.00||0.00||||0.00||0.00|0.00|0.00|0.00|0.00|BTU|||||0.00|01/31/2017|0.00|0.00|0.00|0.00|0.00|0.00|0.00||0.00|0.00||0.00|0.00|0.00|0.00|0.00
S00050257757|RCS_LAMP_P|014_TCP_A|TCP 14w A Lamp|4|28.60|RCS-E|28.60||0.00|0.00|703710.00||0.00|0.00||0.00|||0.00||0.00||||0.00||703710.00|0.00|0.00|0.00|0.00|BTU|E||||0.00|01/17/2017|0.00|0.00|0.00|0.00|0.00|0.00|0.00||0.00|0.00||0.00|0.00|0.00|0.00|0.00
S00050269622|RCS_LAMP_P|014_TCP_A|TCP 14w A Lamp|5|35.75|RCS-E|35.75||0.00|0.00|859901.00||0.00|0.00||0.00|||0.00||0.00||||0.00||859901.00|0.00|0.00|0.00|0.00|BTU|E||||0.00|01/17/2017|0.00|0.00|0.00|0.00|0.00|0.00|0.00||0.00|0.00||0.00|0.00|0.00|0.00|0.00
||||0|0.00||0.00||0.00|0.00|0.00||0.00|0.00||0.00|||0.00||0.00||||0.00||0.00|0.00|0.00|0.00|0.00||||||0.00||0.00|0.00|0.00|0.00|0.00|0.00|0.00||0.00|0.00||0.00|0.00|0.00|0.00|0.00
